2Semestre/LSD/Mini-projeto-2022/simulation/qsim/mini_Demo.msim.vcd
$comment
	File created using the following command:
		vcd file mini_Demo.msim.vcd -direction
$end
$date
	Thu Apr  6 12:23:45 2023
$end
$version
	Questa Intel Starter FPGA Edition Version 2021.2
$end
$timescale
	1ps
$end

$scope module counter4bit_vhd_vec_tst $end
$var wire 1 ! clk $end
$var wire 1 " count [3] $end
$var wire 1 # count [2] $end
$var wire 1 $ count [1] $end
$var wire 1 % count [0] $end
$var wire 1 & reset $end
$var wire 1 ' upDown $end

$scope module i1 $end
$var wire 1 ( gnd $end
$var wire 1 ) vcc $end
$var wire 1 * unknown $end
$var wire 1 + devoe $end
$var wire 1 , devclrn $end
$var wire 1 - devpor $end
$var wire 1 . ww_devoe $end
$var wire 1 / ww_devclrn $end
$var wire 1 0 ww_devpor $end
$var wire 1 1 ww_clk $end
$var wire 1 2 ww_upDown $end
$var wire 1 3 ww_reset $end
$var wire 1 4 ww_count [3] $end
$var wire 1 5 ww_count [2] $end
$var wire 1 6 ww_count [1] $end
$var wire 1 7 ww_count [0] $end
$var wire 1 8 \clk~input_o\ $end
$var wire 1 9 \upDown~input_o\ $end
$var wire 1 : \reset~input_o\ $end
$var wire 1 ; \count[0]~output_o\ $end
$var wire 1 < \count[1]~output_o\ $end
$var wire 1 = \count[2]~output_o\ $end
$var wire 1 > \count[3]~output_o\ $end
$upscope $end
$upscope $end
$enddefinitions $end
#0
$dumpvars
0!
0&
0'
0(
1)
x*
1+
1,
1-
1.
1/
10
01
02
03
08
09
0:
0;
0<
0=
0>
0"
0#
0$
0%
04
05
06
07
$end
#20000
1!
11
18
#40000
0!
01
08
#60000
1!
11
18
#80000
0!
01
08
#100000
1!
11
18
#120000
0!
01
08
#140000
1!
11
18
#160000
0!
01
08
#180000
1!
11
18
#200000
0!
01
08
#220000
1!
11
18
#240000
0!
01
08
#260000
1!
11
18
#280000
0!
01
08
#300000
1!
11
18
#320000
0!
01
08
#340000
1!
11
18
#360000
0!
01
08
#380000
1!
11
18
#400000
0!
01
08
#420000
1!
11
18
#440000
0!
01
08
#460000
1!
11
18
#480000
0!
01
08
#500000
1!
11
18
#520000
0!
01
08
#540000
1!
11
18
#560000
0!
01
08
#580000
1!
11
18
#600000
0!
01
08
#620000
1!
11
18
#640000
0!
01
08
#660000
1!
11
18
#680000
0!
01
08
#700000
1!
11
18
#720000
0!
01
08
#740000
1!
11
18
#760000
0!
01
08
#780000
1!
11
18
#800000
0!
01
08
#820000
1!
11
18
#840000
0!
01
08
#860000
1!
11
18
#880000
0!
01
08
#900000
1!
11
18
#920000
0!
01
08
#940000
1!
11
18
#960000
0!
01
08
#980000
1!
11
18
