2Semestre/LSD/Aulas/aula03/Parte1/simulation/qsim/AdderDemo.msim.vcd
$comment
	File created using the following command:
		vcd file AdderDemo.msim.vcd -direction
$end
$date
	Thu Mar 23 13:57:41 2023
$end
$version
	Questa Intel Starter FPGA Edition Version 2021.2
$end
$timescale
	1ps
$end

$scope module addsub4_vhd_vec_tst $end
$var wire 1 ! a [3] $end
$var wire 1 " a [2] $end
$var wire 1 # a [1] $end
$var wire 1 $ a [0] $end
$var wire 1 % b [3] $end
$var wire 1 & b [2] $end
$var wire 1 ' b [1] $end
$var wire 1 ( b [0] $end
$var wire 1 ) cout $end
$var wire 1 * s [3] $end
$var wire 1 + s [2] $end
$var wire 1 , s [1] $end
$var wire 1 - s [0] $end
$var wire 1 . sub $end

$scope module i1 $end
$var wire 1 / gnd $end
$var wire 1 0 vcc $end
$var wire 1 1 unknown $end
$var wire 1 2 devoe $end
$var wire 1 3 devclrn $end
$var wire 1 4 devpor $end
$var wire 1 5 ww_devoe $end
$var wire 1 6 ww_devclrn $end
$var wire 1 7 ww_devpor $end
$var wire 1 8 ww_sub $end
$var wire 1 9 ww_a [3] $end
$var wire 1 : ww_a [2] $end
$var wire 1 ; ww_a [1] $end
$var wire 1 < ww_a [0] $end
$var wire 1 = ww_b [3] $end
$var wire 1 > ww_b [2] $end
$var wire 1 ? ww_b [1] $end
$var wire 1 @ ww_b [0] $end
$var wire 1 A ww_s [3] $end
$var wire 1 B ww_s [2] $end
$var wire 1 C ww_s [1] $end
$var wire 1 D ww_s [0] $end
$var wire 1 E ww_cout $end
$var wire 1 F \s[0]~output_o\ $end
$var wire 1 G \s[1]~output_o\ $end
$var wire 1 H \s[2]~output_o\ $end
$var wire 1 I \s[3]~output_o\ $end
$var wire 1 J \cout~output_o\ $end
$var wire 1 K \a[0]~input_o\ $end
$var wire 1 L \b[0]~input_o\ $end
$var wire 1 M \Adder|bit0|s~0_combout\ $end
$var wire 1 N \a[1]~input_o\ $end
$var wire 1 O \b[1]~input_o\ $end
$var wire 1 P \Adder|bit1|s~0_combout\ $end
$var wire 1 Q \a[2]~input_o\ $end
$var wire 1 R \b[2]~input_o\ $end
$var wire 1 S \Adder|bit2|s~0_combout\ $end
$var wire 1 T \a[3]~input_o\ $end
$var wire 1 U \b[3]~input_o\ $end
$var wire 1 V \Adder|bit3|s~0_combout\ $end
$var wire 1 W \sub~input_o\ $end
$var wire 1 X \cout~0_combout\ $end
$upscope $end
$upscope $end
$enddefinitions $end
#0
$dumpvars
0)
0.
0/
10
x1
12
13
14
15
16
17
08
0E
1F
1G
1H
1I
0J
0K
1L
1M
0N
1O
1P
0Q
1R
1S
1T
0U
1V
0W
0X
1!
0"
0#
0$
0%
1&
1'
1(
19
0:
0;
0<
0=
1>
1?
1@
1*
1+
1,
1-
1A
1B
1C
1D
$end
#70000
1"
1#
0(
1;
1:
0@
0L
1Q
1N
0P
0S
0M
0F
0H
0G
0D
0B
0C
0-
0,
0+
#140000
0"
0'
1.
0:
0?
18
1W
0O
0Q
1S
1P
1G
1H
1C
1B
1,
1+
#210000
1"
1'
0.
0#
1%
0&
0;
1:
1?
0>
1=
08
0W
1U
0R
1O
1Q
0N
0V
1X
1J
0I
1E
0A
1)
0*
#280000
1#
1&
0!
1;
09
1>
1R
0T
1N
0P
1V
0X
0S
0H
0J
1I
0G
0B
0E
1A
0C
0,
0+
1*
0)
#350000
0&
1!
0"
0'
1.
0%
1(
1@
0?
0>
0=
0:
19
18
1W
1T
0Q
0U
0R
0O
1L
1M
1P
1G
1F
1C
1D
1-
1,
#420000
1&
0!
1'
1%
0#
1$
1?
1>
1=
1<
0;
09
0T
0N
1K
1U
1R
1O
1S
0M
1X
1J
0F
1H
1E
0D
1B
1)
0-
1+
#490000
0&
1!
0'
0%
1#
0$
1"
0(
0@
0?
0>
0=
0<
1;
1:
19
1T
1Q
1N
0K
0U
0R
0O
0L
0X
0J
0E
0)
#560000
1&
1'
0"
1(
1@
1?
1>
0:
0Q
1R
1O
1L
1M
0P
0G
1F
0C
1D
1-
0,
#630000
0'
0!
1%
0.
0?
1=
09
08
0W
0T
1U
0O
1P
1G
1C
1,
#700000
1'
1!
1"
0(
0@
1?
1:
19
1T
1Q
1O
0L
0M
0P
0S
0V
1X
1J
0I
0H
0G
0F
1E
0A
0B
0C
0D
1)
0-
0,
0+
0*
#770000
0!
1(
0%
0&
1$
1<
09
1@
0>
0=
0U
0R
1L
0T
1K
1S
0X
0J
1H
0E
1B
0)
1+
#840000
1&
0$
0'
0#
0?
1>
0<
0;
0N
0K
1R
0O
0S
1M
1F
0H
1D
0B
1-
0+
#910000
0&
1'
1#
0"
1?
0>
1;
0:
0Q
1N
0R
1O
#980000
0'
1"
1.
0?
1:
18
1W
1Q
0O
1P
1S
1H
1G
1B
1C
1,
1+
