2Semestre/LSD/Aulas/aula10/Parte3/simulation/qsim/RAM_2P_Demo.msim.vcd
$comment
	File created using the following command:
		vcd file RAM_2P_Demo.msim.vcd -direction
$end
$date
	Mon May 22 18:52:42 2023
$end
$version
	Questa Intel Starter FPGA Edition Version 2021.2
$end
$timescale
	1ps
$end

$scope module ram_2p_16_8_vhd_vec_tst $end
$var wire 1 ! clk $end
$var wire 1 " readAddress [3] $end
$var wire 1 # readAddress [2] $end
$var wire 1 $ readAddress [1] $end
$var wire 1 % readAddress [0] $end
$var wire 1 & readData [7] $end
$var wire 1 ' readData [6] $end
$var wire 1 ( readData [5] $end
$var wire 1 ) readData [4] $end
$var wire 1 * readData [3] $end
$var wire 1 + readData [2] $end
$var wire 1 , readData [1] $end
$var wire 1 - readData [0] $end
$var wire 1 . writeAddress [3] $end
$var wire 1 / writeAddress [2] $end
$var wire 1 0 writeAddress [1] $end
$var wire 1 1 writeAddress [0] $end
$var wire 1 2 writeData [7] $end
$var wire 1 3 writeData [6] $end
$var wire 1 4 writeData [5] $end
$var wire 1 5 writeData [4] $end
$var wire 1 6 writeData [3] $end
$var wire 1 7 writeData [2] $end
$var wire 1 8 writeData [1] $end
$var wire 1 9 writeData [0] $end
$var wire 1 : writeEnable $end

$scope module i1 $end
$var wire 1 ; gnd $end
$var wire 1 < vcc $end
$var wire 1 = unknown $end
$var wire 1 > devoe $end
$var wire 1 ? devclrn $end
$var wire 1 @ devpor $end
$var wire 1 A ww_devoe $end
$var wire 1 B ww_devclrn $end
$var wire 1 C ww_devpor $end
$var wire 1 D ww_clk $end
$var wire 1 E ww_writeEnable $end
$var wire 1 F ww_writeAddress [3] $end
$var wire 1 G ww_writeAddress [2] $end
$var wire 1 H ww_writeAddress [1] $end
$var wire 1 I ww_writeAddress [0] $end
$var wire 1 J ww_writeData [7] $end
$var wire 1 K ww_writeData [6] $end
$var wire 1 L ww_writeData [5] $end
$var wire 1 M ww_writeData [4] $end
$var wire 1 N ww_writeData [3] $end
$var wire 1 O ww_writeData [2] $end
$var wire 1 P ww_writeData [1] $end
$var wire 1 Q ww_writeData [0] $end
$var wire 1 R ww_readAddress [3] $end
$var wire 1 S ww_readAddress [2] $end
$var wire 1 T ww_readAddress [1] $end
$var wire 1 U ww_readAddress [0] $end
$var wire 1 V ww_readData [7] $end
$var wire 1 W ww_readData [6] $end
$var wire 1 X ww_readData [5] $end
$var wire 1 Y ww_readData [4] $end
$var wire 1 Z ww_readData [3] $end
$var wire 1 [ ww_readData [2] $end
$var wire 1 \ ww_readData [1] $end
$var wire 1 ] ww_readData [0] $end
$var wire 1 ^ \readData[0]~output_o\ $end
$var wire 1 _ \readData[1]~output_o\ $end
$var wire 1 ` \readData[2]~output_o\ $end
$var wire 1 a \readData[3]~output_o\ $end
$var wire 1 b \readData[4]~output_o\ $end
$var wire 1 c \readData[5]~output_o\ $end
$var wire 1 d \readData[6]~output_o\ $end
$var wire 1 e \readData[7]~output_o\ $end
$var wire 1 f \clk~input_o\ $end
$var wire 1 g \writeData[0]~input_o\ $end
$var wire 1 h \writeEnable~input_o\ $end
$var wire 1 i \writeAddress[0]~input_o\ $end
$var wire 1 j \writeAddress[1]~input_o\ $end
$var wire 1 k \writeAddress[2]~input_o\ $end
$var wire 1 l \writeAddress[3]~input_o\ $end
$var wire 1 m \ram_content~221_combout\ $end
$var wire 1 n \ram_content~222_combout\ $end
$var wire 1 o \ram_content~93_q\ $end
$var wire 1 p \readAddress[1]~input_o\ $end
$var wire 1 q \ram_content~223_combout\ $end
$var wire 1 r \ram_content~224_combout\ $end
$var wire 1 s \ram_content~85_q\ $end
$var wire 1 t \readAddress[0]~input_o\ $end
$var wire 1 u \ram_content~225_combout\ $end
$var wire 1 v \ram_content~226_combout\ $end
$var wire 1 w \ram_content~77_q\ $end
$var wire 1 x \ram_content~141_combout\ $end
$var wire 1 y \ram_content~227_combout\ $end
$var wire 1 z \ram_content~228_combout\ $end
$var wire 1 { \ram_content~101_q\ $end
$var wire 1 | \ram_content~142_combout\ $end
$var wire 1 } \readAddress[3]~input_o\ $end
$var wire 1 ~ \ram_content~229_combout\ $end
$var wire 1 !! \ram_content~230_combout\ $end
$var wire 1 "! \ram_content~53_q\ $end
$var wire 1 #! \ram_content~231_combout\ $end
$var wire 1 $! \ram_content~232_combout\ $end
$var wire 1 %! \ram_content~61_q\ $end
$var wire 1 &! \ram_content~233_combout\ $end
$var wire 1 '! \ram_content~234_combout\ $end
$var wire 1 (! \ram_content~45_q\ $end
$var wire 1 )! \ram_content~143_combout\ $end
$var wire 1 *! \ram_content~235_combout\ $end
$var wire 1 +! \ram_content~236_combout\ $end
$var wire 1 ,! \ram_content~69_q\ $end
$var wire 1 -! \ram_content~144_combout\ $end
$var wire 1 .! \readAddress[2]~input_o\ $end
$var wire 1 /! \ram_content~237_combout\ $end
$var wire 1 0! \ram_content~238_combout\ $end
$var wire 1 1! \ram_content~29_q\ $end
$var wire 1 2! \ram_content~239_combout\ $end
$var wire 1 3! \ram_content~240_combout\ $end
$var wire 1 4! \ram_content~21_q\ $end
$var wire 1 5! \ram_content~241_combout\ $end
$var wire 1 6! \ram_content~242_combout\ $end
$var wire 1 7! \ram_content~13_q\ $end
$var wire 1 8! \ram_content~145_combout\ $end
$var wire 1 9! \ram_content~243_combout\ $end
$var wire 1 :! \ram_content~244_combout\ $end
$var wire 1 ;! \ram_content~37_q\ $end
$var wire 1 <! \ram_content~146_combout\ $end
$var wire 1 =! \ram_content~147_combout\ $end
$var wire 1 >! \ram_content~245_combout\ $end
$var wire 1 ?! \ram_content~246_combout\ $end
$var wire 1 @! \ram_content~117_q\ $end
$var wire 1 A! \ram_content~247_combout\ $end
$var wire 1 B! \ram_content~248_combout\ $end
$var wire 1 C! \ram_content~125_q\ $end
$var wire 1 D! \ram_content~249_combout\ $end
$var wire 1 E! \ram_content~250_combout\ $end
$var wire 1 F! \ram_content~109_q\ $end
$var wire 1 G! \ram_content~148_combout\ $end
$var wire 1 H! \ram_content~251_combout\ $end
$var wire 1 I! \ram_content~252_combout\ $end
$var wire 1 J! \ram_content~133_q\ $end
$var wire 1 K! \ram_content~149_combout\ $end
$var wire 1 L! \ram_content~150_combout\ $end
$var wire 1 M! \writeData[1]~input_o\ $end
$var wire 1 N! \ram_content~62_q\ $end
$var wire 1 O! \ram_content~94_q\ $end
$var wire 1 P! \ram_content~30_q\ $end
$var wire 1 Q! \ram_content~151_combout\ $end
$var wire 1 R! \ram_content~126_q\ $end
$var wire 1 S! \ram_content~152_combout\ $end
$var wire 1 T! \ram_content~86_q\ $end
$var wire 1 U! \ram_content~54_q\ $end
$var wire 1 V! \ram_content~22_q\ $end
$var wire 1 W! \ram_content~153_combout\ $end
$var wire 1 X! \ram_content~118_q\ $end
$var wire 1 Y! \ram_content~154_combout\ $end
$var wire 1 Z! \ram_content~46_q\ $end
$var wire 1 [! \ram_content~78_q\ $end
$var wire 1 \! \ram_content~14_q\ $end
$var wire 1 ]! \ram_content~155_combout\ $end
$var wire 1 ^! \ram_content~110_q\ $end
$var wire 1 _! \ram_content~156_combout\ $end
$var wire 1 `! \ram_content~157_combout\ $end
$var wire 1 a! \ram_content~102_q\ $end
$var wire 1 b! \ram_content~70_q\ $end
$var wire 1 c! \ram_content~38_q\ $end
$var wire 1 d! \ram_content~158_combout\ $end
$var wire 1 e! \ram_content~134_q\ $end
$var wire 1 f! \ram_content~159_combout\ $end
$var wire 1 g! \ram_content~160_combout\ $end
$var wire 1 h! \writeData[2]~input_o\ $end
$var wire 1 i! \ram_content~63_q\ $end
$var wire 1 j! \ram_content~55_q\ $end
$var wire 1 k! \ram_content~47_q\ $end
$var wire 1 l! \ram_content~161_combout\ $end
$var wire 1 m! \ram_content~71_q\ $end
$var wire 1 n! \ram_content~162_combout\ $end
$var wire 1 o! \ram_content~87_q\ $end
$var wire 1 p! \ram_content~95_q\ $end
$var wire 1 q! \ram_content~79_q\ $end
$var wire 1 r! \ram_content~163_combout\ $end
$var wire 1 s! \ram_content~103_q\ $end
$var wire 1 t! \ram_content~164_combout\ $end
$var wire 1 u! \ram_content~23_q\ $end
$var wire 1 v! \ram_content~31_q\ $end
$var wire 1 w! \ram_content~15_q\ $end
$var wire 1 x! \ram_content~165_combout\ $end
$var wire 1 y! \ram_content~39_q\ $end
$var wire 1 z! \ram_content~166_combout\ $end
$var wire 1 {! \ram_content~167_combout\ $end
$var wire 1 |! \ram_content~127_q\ $end
$var wire 1 }! \ram_content~119_q\ $end
$var wire 1 ~! \ram_content~111_q\ $end
$var wire 1 !" \ram_content~168_combout\ $end
$var wire 1 "" \ram_content~135_q\ $end
$var wire 1 #" \ram_content~169_combout\ $end
$var wire 1 $" \ram_content~170_combout\ $end
$var wire 1 %" \writeData[3]~input_o\ $end
$var wire 1 &" \ram_content~56_q\ $end
$var wire 1 '" \ram_content~88_q\ $end
$var wire 1 (" \ram_content~24_q\ $end
$var wire 1 )" \ram_content~171_combout\ $end
$var wire 1 *" \ram_content~120_q\ $end
$var wire 1 +" \ram_content~172_combout\ $end
$var wire 1 ," \ram_content~96_q\ $end
$var wire 1 -" \ram_content~64_q\ $end
$var wire 1 ." \ram_content~32_q\ $end
$var wire 1 /" \ram_content~173_combout\ $end
$var wire 1 0" \ram_content~128_q\ $end
$var wire 1 1" \ram_content~174_combout\ $end
$var wire 1 2" \ram_content~80_q\ $end
$var wire 1 3" \ram_content~48_q\ $end
$var wire 1 4" \ram_content~16_q\ $end
$var wire 1 5" \ram_content~175_combout\ $end
$var wire 1 6" \ram_content~112_q\ $end
$var wire 1 7" \ram_content~176_combout\ $end
$var wire 1 8" \ram_content~177_combout\ $end
$var wire 1 9" \ram_content~72_q\ $end
$var wire 1 :" \ram_content~104_q\ $end
$var wire 1 ;" \ram_content~40_q\ $end
$var wire 1 <" \ram_content~178_combout\ $end
$var wire 1 =" \ram_content~136_q\ $end
$var wire 1 >" \ram_content~179_combout\ $end
$var wire 1 ?" \ram_content~180_combout\ $end
$var wire 1 @" \writeData[4]~input_o\ $end
$var wire 1 A" \ram_content~97_q\ $end
$var wire 1 B" \ram_content~89_q\ $end
$var wire 1 C" \ram_content~81_q\ $end
$var wire 1 D" \ram_content~181_combout\ $end
$var wire 1 E" \ram_content~105_q\ $end
$var wire 1 F" \ram_content~182_combout\ $end
$var wire 1 G" \ram_content~57_q\ $end
$var wire 1 H" \ram_content~65_q\ $end
$var wire 1 I" \ram_content~49_q\ $end
$var wire 1 J" \ram_content~183_combout\ $end
$var wire 1 K" \ram_content~73_q\ $end
$var wire 1 L" \ram_content~184_combout\ $end
$var wire 1 M" \ram_content~33_q\ $end
$var wire 1 N" \ram_content~25_q\ $end
$var wire 1 O" \ram_content~17_q\ $end
$var wire 1 P" \ram_content~185_combout\ $end
$var wire 1 Q" \ram_content~41_q\ $end
$var wire 1 R" \ram_content~186_combout\ $end
$var wire 1 S" \ram_content~187_combout\ $end
$var wire 1 T" \ram_content~121_q\ $end
$var wire 1 U" \ram_content~129_q\ $end
$var wire 1 V" \ram_content~113_q\ $end
$var wire 1 W" \ram_content~188_combout\ $end
$var wire 1 X" \ram_content~137_q\ $end
$var wire 1 Y" \ram_content~189_combout\ $end
$var wire 1 Z" \ram_content~190_combout\ $end
$var wire 1 [" \writeData[5]~input_o\ $end
$var wire 1 \" \ram_content~66_q\ $end
$var wire 1 ]" \ram_content~98_q\ $end
$var wire 1 ^" \ram_content~34_q\ $end
$var wire 1 _" \ram_content~191_combout\ $end
$var wire 1 `" \ram_content~130_q\ $end
$var wire 1 a" \ram_content~192_combout\ $end
$var wire 1 b" \ram_content~90_q\ $end
$var wire 1 c" \ram_content~58_q\ $end
$var wire 1 d" \ram_content~26_q\ $end
$var wire 1 e" \ram_content~193_combout\ $end
$var wire 1 f" \ram_content~122_q\ $end
$var wire 1 g" \ram_content~194_combout\ $end
$var wire 1 h" \ram_content~50_q\ $end
$var wire 1 i" \ram_content~82_q\ $end
$var wire 1 j" \ram_content~18_q\ $end
$var wire 1 k" \ram_content~195_combout\ $end
$var wire 1 l" \ram_content~114_q\ $end
$var wire 1 m" \ram_content~196_combout\ $end
$var wire 1 n" \ram_content~197_combout\ $end
$var wire 1 o" \ram_content~106_q\ $end
$var wire 1 p" \ram_content~74_q\ $end
$var wire 1 q" \ram_content~42_q\ $end
$var wire 1 r" \ram_content~198_combout\ $end
$var wire 1 s" \ram_content~138_q\ $end
$var wire 1 t" \ram_content~199_combout\ $end
$var wire 1 u" \ram_content~200_combout\ $end
$var wire 1 v" \writeData[6]~input_o\ $end
$var wire 1 w" \ram_content~67_q\ $end
$var wire 1 x" \ram_content~59_q\ $end
$var wire 1 y" \ram_content~51_q\ $end
$var wire 1 z" \ram_content~201_combout\ $end
$var wire 1 {" \ram_content~75_q\ $end
$var wire 1 |" \ram_content~202_combout\ $end
$var wire 1 }" \ram_content~91_q\ $end
$var wire 1 ~" \ram_content~99_q\ $end
$var wire 1 !# \ram_content~83_q\ $end
$var wire 1 "# \ram_content~203_combout\ $end
$var wire 1 ## \ram_content~107_q\ $end
$var wire 1 $# \ram_content~204_combout\ $end
$var wire 1 %# \ram_content~27_q\ $end
$var wire 1 &# \ram_content~35_q\ $end
$var wire 1 '# \ram_content~19_q\ $end
$var wire 1 (# \ram_content~205_combout\ $end
$var wire 1 )# \ram_content~43_q\ $end
$var wire 1 *# \ram_content~206_combout\ $end
$var wire 1 +# \ram_content~207_combout\ $end
$var wire 1 ,# \ram_content~131_q\ $end
$var wire 1 -# \ram_content~123_q\ $end
$var wire 1 .# \ram_content~115_q\ $end
$var wire 1 /# \ram_content~208_combout\ $end
$var wire 1 0# \ram_content~139_q\ $end
$var wire 1 1# \ram_content~209_combout\ $end
$var wire 1 2# \ram_content~210_combout\ $end
$var wire 1 3# \writeData[7]~input_o\ $end
$var wire 1 4# \ram_content~60_q\ $end
$var wire 1 5# \ram_content~92_q\ $end
$var wire 1 6# \ram_content~28_q\ $end
$var wire 1 7# \ram_content~211_combout\ $end
$var wire 1 8# \ram_content~124_q\ $end
$var wire 1 9# \ram_content~212_combout\ $end
$var wire 1 :# \ram_content~100_q\ $end
$var wire 1 ;# \ram_content~68_q\ $end
$var wire 1 <# \ram_content~36_q\ $end
$var wire 1 =# \ram_content~213_combout\ $end
$var wire 1 ># \ram_content~132_q\ $end
$var wire 1 ?# \ram_content~214_combout\ $end
$var wire 1 @# \ram_content~84_q\ $end
$var wire 1 A# \ram_content~52_q\ $end
$var wire 1 B# \ram_content~20_q\ $end
$var wire 1 C# \ram_content~215_combout\ $end
$var wire 1 D# \ram_content~116_q\ $end
$var wire 1 E# \ram_content~216_combout\ $end
$var wire 1 F# \ram_content~217_combout\ $end
$var wire 1 G# \ram_content~76_q\ $end
$var wire 1 H# \ram_content~108_q\ $end
$var wire 1 I# \ram_content~44_q\ $end
$var wire 1 J# \ram_content~218_combout\ $end
$var wire 1 K# \ram_content~140_q\ $end
$var wire 1 L# \ram_content~219_combout\ $end
$var wire 1 M# \ram_content~220_combout\ $end
$upscope $end
$upscope $end
$enddefinitions $end
#0
$dumpvars
0!
0:
0;
1<
x=
1>
1?
1@
1A
1B
1C
0D
0E
0^
0_
0`
0a
0b
0c
0d
0e
0f
0g
0h
1i
0j
1k
1l
0m
0n
0o
0p
0q
0r
0s
0t
0u
0v
0w
0x
0y
0z
0{
0|
0}
0~
0!!
0"!
0#!
0$!
0%!
0&!
0'!
0(!
0)!
0*!
0+!
0,!
0-!
0.!
0/!
00!
01!
02!
03!
04!
05!
06!
07!
08!
09!
0:!
0;!
0<!
0=!
1>!
0?!
0@!
0A!
0B!
0C!
0D!
0E!
0F!
0G!
0H!
0I!
0J!
0K!
0L!
0M!
0N!
0O!
0P!
0Q!
0R!
0S!
0T!
0U!
0V!
0W!
0X!
0Y!
0Z!
0[!
0\!
0]!
0^!
0_!
0`!
0a!
0b!
0c!
0d!
0e!
0f!
0g!
0h!
0i!
0j!
0k!
0l!
0m!
0n!
0o!
0p!
0q!
0r!
0s!
0t!
0u!
0v!
0w!
0x!
0y!
0z!
0{!
0|!
0}!
0~!
0!"
0""
0#"
0$"
1%"
0&"
0'"
0("
0)"
0*"
0+"
0,"
0-"
0."
0/"
00"
01"
02"
03"
04"
05"
06"
07"
08"
09"
0:"
0;"
0<"
0="
0>"
0?"
0@"
0A"
0B"
0C"
0D"
0E"
0F"
0G"
0H"
0I"
0J"
0K"
0L"
0M"
0N"
0O"
0P"
0Q"
0R"
0S"
0T"
0U"
0V"
0W"
0X"
0Y"
0Z"
1["
0\"
0]"
0^"
0_"
0`"
0a"
0b"
0c"
0d"
0e"
0f"
0g"
0h"
0i"
0j"
0k"
0l"
0m"
0n"
0o"
0p"
0q"
0r"
0s"
0t"
0u"
1v"
0w"
0x"
0y"
0z"
0{"
0|"
0}"
0~"
0!#
0"#
0##
0$#
0%#
0&#
0'#
0(#
0)#
0*#
0+#
0,#
0-#
0.#
0/#
00#
01#
02#
13#
04#
05#
06#
07#
08#
09#
0:#
0;#
0<#
0=#
0>#
0?#
0@#
0A#
0B#
0C#
0D#
0E#
0F#
0G#
0H#
0I#
0J#
0K#
0L#
0M#
0"
0#
0$
0%
1.
1/
00
11
12
13
14
05
16
07
08
09
1F
1G
0H
1I
1J
1K
1L
0M
1N
0O
0P
0Q
0R
0S
0T
0U
0&
0'
0(
0)
0*
0+
0,
0-
0V
0W
0X
0Y
0Z
0[
0\
0]
$end
#20000
1!
1:
1D
1E
1h
1f
1?!
#40000
0!
02
15
18
19
0D
1Q
1P
1M
0J
03#
1@"
1M!
1g
0f
#50000
1"
1$
1T
1R
1}
1p
#60000
1!
1D
1f
1@!
1X!
1*"
1T"
1f"
1-#
#80000
0!
12
0.
0/
10
01
06
0D
0N
1J
0I
1H
0G
0F
0l
0k
1j
0i
13#
0%"
0f
1/!
0>!
0?!
10!
#100000
1!
0"
1#
1%
1D
1U
1S
0R
0}
1.!
1t
1f
11!
1P!
1M"
1^"
1&#
1<#
1x
1)!
18!
1G!
1K!
1`!
1l!
1r!
1x!
1!"
18"
1D"
1J"
1P"
1W"
1Y"
1n"
1z"
1"#
1(#
1/#
1F#
0Y"
0K!
#120000
0!
02
16
05
09
03
04
0D
0Q
1N
0M
0L
0K
0J
03#
0v"
0["
0@"
1%"
0g
0f
#140000
1!
1D
1f
01!
1."
0M"
0^"
0&#
0<#
#150000
0#
0S
0.!
1Q!
1/"
11"
1S!
#160000
0!
12
06
19
13
08
17
0D
1Q
0P
1O
0N
1K
1J
13#
1v"
0%"
1h!
0M!
1g
0f
#180000
1!
1D
1f
11!
0P!
1v!
0."
1&#
1<#
1=#
0/"
0Q!
0S!
01"
1?#
#200000
0!
02
09
07
15
14
1"
0$
0D
0Q
0O
1M
1L
0J
0T
1R
1}
0p
03#
1["
1@"
0h!
0g
0f
0x
1|
0)!
08!
1<!
0G!
0`!
1g!
0l!
1n!
0r!
0x!
0!"
1#"
08"
0D"
1F"
0J"
0P"
1R"
0W"
0n"
1u"
0z"
1|"
0"#
0(#
11#
0F#
0=#
0?#
0|"
0u"
1Y"
0R"
1Z"
0F"
0#"
0n!
0g!
1K!
0<!
1L!
0|
0L!
0Z"
1c
1_
1X
1\
1^
0_
1b
0c
1,
1(
1]
0\
1Y
0X
0b
0^
1-
0,
1)
0(
0Y
0]
0-
0)
#220000
1!
1D
1f
01!
0v!
1M"
1^"
0<#
#240000
0!
19
04
03
18
00
0D
1Q
1P
0L
0K
0H
0j
0v"
0["
1M!
1g
0f
0/!
15!
16!
00!
#250000
0"
1$
0%
0U
1T
0R
0}
1p
0t
0K!
0Y"
1R"
1(#
0/#
01#
1_"
1a"
1*#
1S"
1Z"
1+#
1u"
12#
1c
1b
1X
1Y
1d
1)
1(
1W
1'
#260000
1!
1D
1f
17!
1\!
1O"
1]!
1_!
#280000
0!
14
13
08
05
0D
0P
0M
1L
1K
1v"
1["
0@"
0M!
0f
#300000
1!
0$
1D
0T
0p
1f
0\!
0O"
1j"
1'#
18!
1`!
1P"
0R"
0u"
0(#
0*#
0S"
1R"
1g!
1<!
1(#
1k"
0P"
0]!
0_!
0R"
1m"
1*#
1=!
1S"
0Z"
0+#
0c
02#
1Z"
1L!
1+#
1n"
0S"
0`!
0X
1_
0(
0g!
0Z"
1u"
12#
1\
0b
1,
0Y
1^
1b
0d
0)
1]
1Y
0W
1d
1c
0b
0_
1-
1)
0'
1W
1X
0Y
0\
0,
0)
1(
1'
#320000
0!
04
10
17
11
0D
1O
0L
1I
1H
1j
1i
0["
1h!
0f
05!
19!
1:!
06!
#340000
1!
1D
1f
1;!
1y!
1)#
#350000
1$
1%
1#
1U
1T
1S
1.!
1p
1t
1K!
1Y"
1x
1)!
1G!
1`!
1l!
1r!
1x!
1!"
18"
1D"
1J"
1P"
1R"
1W"
0u"
1z"
1"#
1/#
1F#
0=!
0_"
0a"
0k"
0m"
0+#
02#
0Y"
0R"
1z!
0K!
0L!
0d
0c
0W
0X
0^
0(
0'
0]
0-
#360000
0!
07
03
18
09
12
16
0D
0Q
1P
0O
1N
0K
1J
13#
0v"
1%"
0h!
1M!
0g
0f
#370000
0:
0E
0h
0:!
#380000
1!
1D
1f
#400000
0!
19
02
06
0$
00
1.
1/
0D
1Q
0N
0J
0T
0H
1G
1F
1l
1k
0j
0p
03#
0%"
1g
0f
0x
1|
0)!
08!
0G!
0`!
1g!
0l!
1n!
0r!
0x!
0!"
1#"
08"
0D"
1F"
0J"
0P"
1R"
0W"
0n"
1u"
0z"
1|"
0"#
0(#
11#
0F#
09!
1>!
0*#
12#
0|"
0u"
1Y"
0R"
0F"
0#"
0z!
1$"
0n!
0g!
1K!
0<!
0|
0$"
02#
1c
1_
1X
1\
0_
1`
0c
1d
1,
1(
0\
1[
0X
1W
0d
0`
0,
1+
0(
1'
0W
0[
0+
0'
#420000
1!
1D
1f
#440000
0!
12
16
17
13
08
14
0D
0P
1O
1N
1L
1K
1J
13#
1v"
1["
1%"
1h!
0M!
0f
#450000
1$
0#
1T
0S
0.!
1p
1x
1)!
18!
1G!
1`!
1l!
1r!
1x!
1!"
18"
1D"
1J"
1P"
1R"
1W"
1n"
1z"
1"#
1(#
01#
1F#
1_"
1k"
1m"
1a"
1*#
0Y"
1S"
0R"
1z!
0K!
1<!
1=!
1{!
0S"
1Z"
1+#
12#
0Z"
1$"
1L!
1b
1Y
1^
1`
0b
1d
1)
1]
1[
0Y
1W
1-
1+
0)
1'
#460000
1!
1D
1f
#480000
0!
06
04
09
10
0.
01
0D
0Q
0N
0L
0I
1H
0F
0l
1j
0i
0["
0%"
0g
0f
1#!
0>!
#500000
1!
0%
1"
1D
0U
1R
1}
0t
1f
0x
0)!
1-!
08!
0G!
1K!
0`!
0l!
0r!
1t!
0x!
0!"
08"
1?"
0D"
0J"
1L"
0P"
0W"
1Y"
0n"
0z"
0"#
1$#
0/#
0F#
1M#
0=!
0L!
0{!
0_"
0k"
0+#
02#
0m"
0a"
0$"
0M#
1+#
0$#
1u"
0Y"
1R"
0L"
0?"
0z!
1{!
0t!
0K!
0<!
0-!
1$"
0{!
0+#
12#
0u"
0^
1e
1a
02#
0$"
0]
1V
1Z
0a
1c
0e
0`
0d
0-
1*
1&
0Z
1X
0V
0[
0W
0c
1d
1`
0+
0*
1(
0'
0&
0X
1W
1[
0`
0d
1+
0(
1'
0[
0W
0+
0'
#520000
0!
15
0D
1M
1@"
0f
#540000
1!
1D
1f
#550000
1%
0"
1#
1U
1S
0R
0}
1.!
1t
1x
1)!
18!
1G!
1K!
1`!
1l!
1r!
1x!
1!"
18"
1D"
1J"
1P"
1W"
1Y"
1n"
1z"
1"#
1/#
1F#
0Y"
0R"
1z!
0K!
1<!
#560000
0!
16
1.
11
03
18
0/
0D
1P
1N
0K
1I
0G
1F
1l
0k
1i
0v"
1%"
1M!
0f
1y
0#!
#580000
1!
1:
1D
1E
1h
1f
1z
#600000
0!
06
08
0#
14
19
02
0D
1Q
0P
0N
1L
0J
0S
0.!
03#
1["
0%"
0M!
1g
0f
1=!
1{!
1_"
1k"
1+#
12#
1m"
1a"
1$"
1L!
1^
1`
1d
1]
1[
1W
1-
1+
1'
#620000
1!
1D
1f
1{
1s!
1E"
1o"
1F"
1t!
1|
#640000
0!
16
04
12
0.
1/
05
00
07
0D
0O
1N
0M
0L
1J
0H
1G
0F
0l
1k
0j
13#
0["
0@"
1%"
0h!
0f
0y
1~
1!!
0z
#650000
0%
0U
0t
0x
0)!
1-!
08!
0G!
1K!
0`!
0l!
0r!
0x!
0!"
08"
1?"
0D"
0J"
1L"
0P"
0W"
1Y"
0n"
0z"
0"#
1$#
0/#
0F#
1M#
0M#
0$#
1u"
0Y"
1R"
0L"
0F"
0?"
0z!
0t!
0K!
0<!
0-!
0|
0=!
0{!
1S"
1e
1a
1Z"
0$"
0L!
1V
1Z
0a
1c
0e
1*
1&
0Z
1X
0V
0*
1(
0&
0^
0`
1b
0]
0[
1Y
0-
0+
1)
#660000
1!
1D
1f
1"!
1&"
14#
#680000
0!
06
14
17
09
0D
0Q
1O
0N
1L
1["
0%"
1h!
0g
0f
#700000
1!
1%
0$
1D
1U
0T
0p
1t
1f
0"!
1j!
0&"
1c"
1-!
1K!
1Y"
0R"
0u"
0(#
1/#
11#
0*#
0S"
1l!
0-!
1n!
0Z"
0+#
0c
02#
0X
0(
0b
0Y
0d
0)
0W
0'
#720000
0!
07
19
0/
10
18
0D
1Q
1P
0O
1H
0G
0k
1j
0h!
1M!
1g
0f
0~
19!
1:!
0!!
#740000
1!
1D
1f
1c!
0y!
1q"
0)#
1I#
1J#
1r"
1d!
1f!
1t"
1L#
#750000
1$
1#
1"
1T
1S
1R
1}
1.!
1p
1x
1)!
18!
1G!
1`!
0n!
1r!
1x!
1!"
18"
1D"
1J"
1P"
1R"
1W"
1n"
1u"
1z"
1"#
1(#
01#
1F#
1$"
0a"
0m"
19#
0L#
1=!
1Q!
1W!
1]!
0f!
1{!
1)"
1/"
15"
1<"
1S"
1e"
0t"
1+#
17#
1=#
1C#
09#
1g"
1Z"
1+"
1Y!
1L!
0u"
0Y"
0R"
1F"
1t!
0$"
0K!
1<!
1|
0L!
0Z"
1`
1c
1[
1X
0`
0c
1^
1b
1+
1(
0[
0X
1]
1Y
0b
0^
1-
0+
1)
0(
0Y
0]
0-
0)
#760000
0!
17
08
16
04
02
15
13
0D
0P
1O
1N
1M
0L
1K
0J
03#
1v"
0["
1@"
1%"
1h!
0M!
0f
#780000
1!
1D
1f
0c!
1y!
1;"
1Q"
0q"
1)#
0I#
1*#
1R"
1z!
#800000
0!
18
14
03
0$
0#
0"
1/
0%
1.
0D
1P
1L
0K
0U
0T
0S
0R
1G
1F
1l
1k
0}
0.!
0p
0t
0v"
1["
1M!
0f
1-!
1K!
1?"
1L"
1Y"
1$#
1M#
0x
0)!
0G!
0`!
1g!
0l!
1n!
0r!
0x!
0!"
1#"
08"
0D"
0J"
0P"
0W"
0n"
1u"
0z"
1|"
0"#
0/#
11#
0F#
1S!
1_!
1$"
1>"
1a"
1m"
12#
19#
1L#
1L!
0Q!
0W!
0]!
0d!
1f!
0)"
0/"
11"
05"
17"
1Z"
0e"
0r"
1t"
07#
0=#
1?#
0C#
1E#
0J#
09!
1H!
1I!
0:!
0L#
0E#
1F#
0?#
09#
0t"
0g"
07"
18"
01"
0+"
0f!
0_!
0Y!
0S!
1n"
1`!
0M#
01#
0$#
0|"
0u"
0Y"
0R"
0L"
0F"
0?"
0#"
0z!
0t!
0n!
0g!
0K!
0-!
0|
0{!
0S"
0`!
1g!
1?"
08"
1u"
0F#
1M#
1b
1^
1d
1`
1c
1_
1e
1a
0M#
0?"
0g!
0Z"
0$"
1Y
1]
1W
1[
1X
1\
1V
1Z
0_
0a
0c
0e
1-
1,
1+
1*
1)
1(
1'
1&
0\
0Z
0X
0V
1e
1c
1a
1_
0,
0*
0(
0&
1V
1X
1Z
1\
0`
0b
0_
0a
0e
1,
1*
1(
1&
0[
0Y
0\
0Z
0V
0,
0+
0*
0)
0&
#820000
1!
1D
1f
1J!
1e!
1""
1="
1X"
1s"
#840000
0!
08
13
07
09
0D
0Q
0P
0O
1K
1v"
0h!
0M!
0g
0f
#850000
1%
1U
1t
08!
1K!
1l!
1Y"
0n"
0(#
1/#
11#
0*#
0u"
1n!
0<!
0=!
0+#
02#
0L!
0c
0X
0(
0^
0d
0]
0W
0-
0'
#860000
1!
0:
1D
0E
0h
1f
0J!
0e!
0""
10#
0I!
#880000
0!
18
03
19
0.
06
05
00
0D
1Q
1P
0N
0M
0K
0H
0F
0l
0j
0v"
0@"
0%"
1M!
1g
0f
1~
0H!
#900000
1!
0%
1$
1#
1"
1D
0U
1T
1S
1R
1}
1.!
1p
0t
1f
0K!
0Y"
0l!
0n!
1R"
1u"
1(#
0/#
1$"
0a"
0m"
19#
1=!
1Q!
1W!
1]!
1d!
1{!
1)"
1/"
15"
1S"
1e"
1r"
1t"
1+#
17#
1=#
1C#
1J#
09#
12#
1g"
1+"
1Y!
0u"
01#
1*#
0$"
02#
1`
1c
1[
1X
0`
0c
1d
1+
1(
0[
0X
1W
0d
0+
0(
1'
0W
0'
#920000
0!
09
16
15
17
12
0D
0Q
1O
1N
1M
1J
13#
1@"
1%"
1h!
0g
0f
#940000
1!
1D
1f
