2Semestre/LSD/Aulas/aula02/Parte3/simulation/qsim/DisplayDemo.msim.vcd
$comment
	File created using the following command:
		vcd file DisplayDemo.msim.vcd -direction
$end
$date
	Sun Mar 19 17:13:30 2023
$end
$version
	Questa Intel Starter FPGA Edition Version 2021.2
$end
$timescale
	1ps
$end

$scope module displaydemo_vhd_vec_tst $end
$var wire 1 ! HEX0 [6] $end
$var wire 1 " HEX0 [5] $end
$var wire 1 # HEX0 [4] $end
$var wire 1 $ HEX0 [3] $end
$var wire 1 % HEX0 [2] $end
$var wire 1 & HEX0 [1] $end
$var wire 1 ' HEX0 [0] $end
$var wire 1 ( KEY [0] $end
$var wire 1 ) LEDR [6] $end
$var wire 1 * LEDR [5] $end
$var wire 1 + LEDR [4] $end
$var wire 1 , LEDR [3] $end
$var wire 1 - LEDR [2] $end
$var wire 1 . LEDR [1] $end
$var wire 1 / LEDR [0] $end
$var wire 1 0 SW [3] $end
$var wire 1 1 SW [2] $end
$var wire 1 2 SW [1] $end
$var wire 1 3 SW [0] $end

$scope module i1 $end
$var wire 1 4 gnd $end
$var wire 1 5 vcc $end
$var wire 1 6 unknown $end
$var wire 1 7 devoe $end
$var wire 1 8 devclrn $end
$var wire 1 9 devpor $end
$var wire 1 : ww_devoe $end
$var wire 1 ; ww_devclrn $end
$var wire 1 < ww_devpor $end
$var wire 1 = ww_HEX0 [6] $end
$var wire 1 > ww_HEX0 [5] $end
$var wire 1 ? ww_HEX0 [4] $end
$var wire 1 @ ww_HEX0 [3] $end
$var wire 1 A ww_HEX0 [2] $end
$var wire 1 B ww_HEX0 [1] $end
$var wire 1 C ww_HEX0 [0] $end
$var wire 1 D ww_KEY [0] $end
$var wire 1 E ww_SW [3] $end
$var wire 1 F ww_SW [2] $end
$var wire 1 G ww_SW [1] $end
$var wire 1 H ww_SW [0] $end
$var wire 1 I ww_LEDR [6] $end
$var wire 1 J ww_LEDR [5] $end
$var wire 1 K ww_LEDR [4] $end
$var wire 1 L ww_LEDR [3] $end
$var wire 1 M ww_LEDR [2] $end
$var wire 1 N ww_LEDR [1] $end
$var wire 1 O ww_LEDR [0] $end
$var wire 1 P \HEX0[6]~output_o\ $end
$var wire 1 Q \HEX0[5]~output_o\ $end
$var wire 1 R \HEX0[4]~output_o\ $end
$var wire 1 S \HEX0[3]~output_o\ $end
$var wire 1 T \HEX0[2]~output_o\ $end
$var wire 1 U \HEX0[1]~output_o\ $end
$var wire 1 V \HEX0[0]~output_o\ $end
$var wire 1 W \LEDR[6]~output_o\ $end
$var wire 1 X \LEDR[5]~output_o\ $end
$var wire 1 Y \LEDR[4]~output_o\ $end
$var wire 1 Z \LEDR[3]~output_o\ $end
$var wire 1 [ \LEDR[2]~output_o\ $end
$var wire 1 \ \LEDR[1]~output_o\ $end
$var wire 1 ] \LEDR[0]~output_o\ $end
$var wire 1 ^ \KEY[0]~input_o\ $end
$var wire 1 _ \SW[3]~input_o\ $end
$var wire 1 ` \inst|decOut_n[6]~22_combout\ $end
$var wire 1 a \SW[1]~input_o\ $end
$var wire 1 b \SW[2]~input_o\ $end
$var wire 1 c \SW[0]~input_o\ $end
$var wire 1 d \inst|decOut_n[6]~39_combout\ $end
$var wire 1 e \inst|decOut_n[6]~6_combout\ $end
$var wire 1 f \inst|decOut_n[6]~36_combout\ $end
$var wire 1 g \inst|comb~12_combout\ $end
$var wire 1 h \inst|comb~13_combout\ $end
$var wire 1 i \inst|decOut_n[5]~13_combout\ $end
$var wire 1 j \inst|decOut_n[5]~38_combout\ $end
$var wire 1 k \inst|comb~15_combout\ $end
$var wire 1 l \inst|comb~14_combout\ $end
$var wire 1 m \inst|decOut_n[4]~9_combout\ $end
$var wire 1 n \inst|decOut_n[4]~37_combout\ $end
$var wire 1 o \inst|comb~16_combout\ $end
$var wire 1 p \inst|comb~17_combout\ $end
$var wire 1 q \inst|decOut_n[3]~28_combout\ $end
$var wire 1 r \inst|Equal14~1_combout\ $end
$var wire 1 s \inst|Equal14~0_combout\ $end
$var wire 1 t \inst|decOut_n[4]~29_combout\ $end
$var wire 1 u \inst|Equal14~2_combout\ $end
$var wire 1 v \inst|decOut_n[3]~30_combout\ $end
$var wire 1 w \inst|comb~19_combout\ $end
$var wire 1 x \inst|comb~18_combout\ $end
$var wire 1 y \inst|comb~2_combout\ $end
$var wire 1 z \inst|comb~24_combout\ $end
$var wire 1 { \inst|comb~6_combout\ $end
$var wire 1 | \inst|comb~25_combout\ $end
$var wire 1 } \inst|decOut_n[1]~32_combout\ $end
$var wire 1 ~ \inst|decOut_n[1]~31_combout\ $end
$var wire 1 !! \inst|decOut_n[1]~33_combout\ $end
$var wire 1 "! \inst|comb~21_combout\ $end
$var wire 1 #! \inst|comb~20_combout\ $end
$var wire 1 $! \inst|decOut_n[0]~34_combout\ $end
$var wire 1 %! \inst|decOut_n[0]~35_combout\ $end
$var wire 1 &! \inst|comb~23_combout\ $end
$var wire 1 '! \inst|comb~22_combout\ $end
$var wire 1 (! \inst|decOut_n\ [6] $end
$var wire 1 )! \inst|decOut_n\ [5] $end
$var wire 1 *! \inst|decOut_n\ [4] $end
$var wire 1 +! \inst|decOut_n\ [3] $end
$var wire 1 ,! \inst|decOut_n\ [2] $end
$var wire 1 -! \inst|decOut_n\ [1] $end
$var wire 1 .! \inst|decOut_n\ [0] $end
$upscope $end
$upscope $end
$enddefinitions $end
#0
$dumpvars
04
15
x6
17
18
19
1:
1;
1<
0P
0Q
0R
0S
0T
0U
0V
0W
0X
0Y
0Z
0[
0\
0]
1^
1_
1`
1a
0b
1c
1d
0e
0f
1g
0h
1i
0j
0k
1l
0m
0n
1o
0p
1q
0r
0s
1t
0u
0v
0w
1x
1y
1z
1{
0|
0}
0~
0!!
0"!
1#!
1$!
0%!
0&!
1'!
1(
10
01
12
13
1D
1E
0F
1G
1H
0(!
0)!
0*!
0+!
0,!
0-!
0.!
0!
0"
0#
0$
0%
0&
0'
0)
0*
0+
0,
0-
0.
0/
0=
0>
0?
0@
0A
0B
0C
0I
0J
0K
0L
0M
0N
0O
$end
#40000
00
02
03
0(
0H
0G
0E
0D
0^
0_
0a
0c
0q
0y
0$!
0`
1~
1%!
1&!
0'!
1!!
0d
0%!
0z
1v
0g
0l
0o
0x
0&!
0#!
1.!
1V
1]
1C
1O
1'
1/
#80000
12
1(
1G
1D
1^
1a
1d
1e
1m
1q
1s
1y
1}
1`
0v
1z
0~
0t
0!!
1g
1l
1o
1x
1"!
1'!
0.!
1-!
0"!
1#!
0-!
1U
1\
0V
0]
1B
1N
0C
0O
0U
0\
0'
1&
0/
1.
0B
0N
0&
0.
#120000
02
13
1H
0G
0a
1c
1r
0s
0{
#160000
12
0(
10
1G
1E
0D
0^
1_
1a
1{
0e
0m
0r
0}
1$!
1f
1n
1v
1%!
1&!
0'!
1w
0x
0o
1p
0g
1h
1t
1~
0n
0f
1g
0h
1o
0p
1!!
0v
1(!
1*!
1+!
1.!
0w
1x
1"!
0#!
0*!
0(!
1-!
0+!
1V
1]
1S
1Z
1R
1Y
1P
1W
1C
1O
1@
1L
1?
1K
1=
1I
0P
0W
0R
0Y
1'
1$
1#
1!
1/
1,
1+
1)
0=
0I
0?
0K
0S
0Z
1U
1\
0#
0!
0+
0)
0@
0L
1B
1N
1&
0$
1.
0,
#200000
02
1(
00
11
0G
1F
0E
1D
1^
0_
1b
0a
0{
0i
1m
0$!
0~
0%!
0&!
1'!
0!!
0"!
1#!
0.!
0-!
0V
0]
0C
0O
0U
0\
0'
0/
0B
0N
0&
0.
#240000
12
0(
10
01
1G
0F
1E
0D
0^
1_
0b
1a
1{
1i
0m
1$!
1n
1~
1!!
0o
1p
1%!
0n
1o
0p
1&!
0'!
1*!
1"!
0#!
1-!
1.!
0*!
1R
1Y
1?
1K
0R
0Y
1V
1]
1U
1\
1#
1+
0?
0K
1C
1O
1B
1N
1'
1&
0#
1/
1.
0+
#280000
00
11
1F
0E
0_
1b
0`
1e
1j
1m
0q
1}
0$!
0%!
0!!
1v
1n
1k
0l
1f
0g
1h
1)!
0o
1p
1w
0x
0"!
1#!
0&!
1'!
0.!
0-!
1+!
1*!
1(!
1Q
1X
1>
1J
1P
1W
1R
1Y
1S
1Z
0U
0\
0V
0]
1"
1*
1=
1I
1?
1K
1@
1L
0B
0N
0C
0O
0'
0&
1$
1#
1!
0/
0.
1,
1+
1)
#320000
01
02
03
0H
0G
0F
0b
0a
0c
0j
0d
0e
0m
0y
0}
1!!
0z
0n
0f
0h
0p
0w
0#!
0'!
0k
#360000
10
1E
1_
1`
1q
1y
1}
0!!
1z
0v
1d
1g
1l
1o
1'!
1x
1#!
0+!
0*!
0)!
0(!
0P
0W
0Q
0X
0R
0Y
0S
0Z
0=
0I
0>
0J
0?
0K
0@
0L
0$
0#
0"
0!
0,
0+
0*
0)
#400000
00
12
13
1H
1G
0E
0_
1a
1c
0`
1j
1m
1u
1n
1k
0l
1)!
0o
1p
1*!
1Q
1X
1>
1J
1R
1Y
1"
1*
1?
1K
1#
1+
#440000
10
02
03
0H
0G
1E
1_
0a
0c
0d
1`
0j
0m
0u
0n
1d
0g
0k
0p
0x
0#!
0'!
1g
1l
1x
1#!
1'!
1o
0*!
0)!
0Q
0X
0R
0Y
0>
0J
0?
0K
0#
0"
0+
0*
#480000
00
12
11
1(
1G
1F
0E
1D
1^
0_
1b
1a
0}
0~
#520000
02
01
0G
0F
0b
0a
0q
0y
#560000
12
11
1G
1F
1b
1a
1q
1y
#600000
01
0(
0F
0D
0^
0b
1e
1m
1s
1}
0`
1~
0t
1!!
1n
1f
0g
1h
0o
1p
1"!
0#!
1v
1%!
1&!
0'!
1w
0x
1-!
1*!
1(!
1+!
1.!
1P
1W
1R
1Y
1U
1\
1=
1I
1?
1K
1B
1N
1V
1]
1S
1Z
1&
1#
1!
1.
1+
1)
1C
1O
1@
1L
1'
1$
1/
1,
#640000
1(
02
10
13
1D
1H
0G
1E
1_
0a
1c
1^
0f
0n
0v
0~
0%!
0{
1`
0e
0s
1t
0&!
1'!
0!!
0w
1x
1o
0p
1g
0h
0(!
0*!
0+!
0"!
1#!
0.!
0-!
0V
0]
0S
0Z
0R
0Y
0P
0W
0C
0O
0@
0L
0?
0K
0=
0I
0U
0\
0'
0$
0#
0!
0/
0,
0+
0)
0B
0N
0&
0.
#680000
0(
12
00
11
0D
1G
1F
0E
0_
1b
1a
0^
1n
1~
1{
0`
1e
1j
0q
1v
1k
0l
1f
0o
1p
1*!
0g
1h
1)!
1w
0x
1+!
1(!
1Q
1X
1R
1Y
1>
1J
1?
1K
1P
1W
1S
1Z
1#
1"
1+
1*
1=
1I
1@
1L
1$
1!
1,
1)
#720000
02
10
01
0G
0F
1E
1_
0b
0a
0{
1`
0e
0j
1q
0v
0k
1l
0f
1g
0h
0)!
0w
1x
0+!
0(!
0Q
0X
0>
0J
0P
0W
0S
0Z
0"
0*
0=
0I
0@
0L
0$
0!
0,
0)
#760000
11
03
0H
1F
1b
0c
1{
1e
0i
0m
0y
0}
1!!
0z
0n
1f
1|
0g
1h
1o
0p
1,!
1"!
0#!
1-!
0*!
1(!
1T
1[
1A
1M
1P
1W
0R
0Y
1U
1\
1%
1-
1=
1I
0?
0K
1B
1N
1&
0#
1!
1.
0+
1)
#800000
00
0E
0_
0`
0e
1m
0q
1y
0|
1}
1$!
1%!
0!!
1z
1v
1n
0f
1g
0h
0o
1p
1w
0x
0,!
0"!
1#!
1&!
0'!
1.!
0-!
1+!
1*!
0(!
0T
0[
0A
0M
0P
0W
1R
1Y
1S
1Z
0U
0\
1V
1]
0%
0-
0=
0I
1?
1K
1@
1L
0B
0N
1C
1O
1'
0&
1$
1#
0!
1/
0.
1,
1+
0)
#840000
10
01
13
12
1(
1H
1G
0F
1E
1D
1^
1_
0b
1a
1c
1i
0m
1q
0}
1`
0n
0v
0~
0%!
0&!
1'!
0w
1x
1o
0p
0*!
0+!
0.!
0V
0]
0S
0Z
0R
0Y
0C
0O
0@
0L
0?
0K
0'
0$
0#
0/
0,
0+
#880000
00
11
0(
1F
0E
0D
0^
0_
1b
1e
1m
0q
1}
0$!
0`
1j
1~
1%!
1&!
0'!
1k
0l
0%!
1v
1n
1f
0g
1h
0o
1p
1w
0x
0&!
1'!
1)!
1.!
0.!
1+!
1*!
1(!
1V
1]
1Q
1X
1C
1O
1>
1J
1P
1W
1R
1Y
1S
1Z
0V
0]
1'
1"
1/
1*
1=
1I
1?
1K
1@
1L
0C
0O
0'
1$
1#
1!
0/
1,
1+
1)
#920000
10
01
1(
03
0H
0F
1E
1D
1^
1_
0b
0c
0e
0m
1`
0f
0j
0n
0v
0~
0w
1x
1o
0p
0k
1l
1g
0h
0(!
0)!
0*!
0+!
0S
0Z
0R
0Y
0Q
0X
0P
0W
0@
0L
0?
0K
0>
0J
0=
0I
0$
0#
0"
0!
0,
0+
0*
0)
#960000
00
11
0(
13
02
1H
0G
1F
0E
0D
0^
0_
1b
0a
1c
0{
0i
1m
1q
0}
0`
1j
1v
1~
1w
0x
1k
0l
1!!
0v
1n
0j
0k
1l
0o
1p
0w
1x
1"!
0#!
1)!
1+!
1-!
0+!
1*!
0)!
1S
1Z
1Q
1X
1@
1L
1>
1J
0Q
0X
1R
1Y
0S
0Z
1U
1\
1$
1"
1,
1*
0>
0J
1?
1K
0@
0L
1B
1N
1&
0$
1#
0"
1.
0,
1+
0*
