2Semestre/LSD/Aulas/aula03/Parte4/simulation/qsim/HexDemo.msim.vcd
$comment
	File created using the following command:
		vcd file HexDemo.msim.vcd -direction
$end
$date
	Thu Mar 23 16:18:21 2023
$end
$version
	Questa Intel Starter FPGA Edition Version 2021.2
$end
$timescale
	1ps
$end

$scope module hexdemo_vhd_vec_tst $end
$var wire 1 ! HEX [3] $end
$var wire 1 " HEX [2] $end
$var wire 1 # HEX [1] $end
$var wire 1 $ HEX [0] $end
$var wire 1 % KEY [0] $end
$var wire 1 & LEDR [7] $end
$var wire 1 ' LEDR [6] $end
$var wire 1 ( LEDR [5] $end
$var wire 1 ) LEDR [4] $end
$var wire 1 * LEDR [3] $end
$var wire 1 + LEDR [2] $end
$var wire 1 , LEDR [1] $end
$var wire 1 - LEDR [0] $end
$var wire 1 . SW [10] $end
$var wire 1 / SW [9] $end
$var wire 1 0 SW [8] $end
$var wire 1 1 SW [7] $end
$var wire 1 2 SW [6] $end
$var wire 1 3 SW [5] $end
$var wire 1 4 SW [4] $end
$var wire 1 5 SW [3] $end
$var wire 1 6 SW [2] $end
$var wire 1 7 SW [1] $end
$var wire 1 8 SW [0] $end

$scope module i1 $end
$var wire 1 9 gnd $end
$var wire 1 : vcc $end
$var wire 1 ; unknown $end
$var wire 1 < devoe $end
$var wire 1 = devclrn $end
$var wire 1 > devpor $end
$var wire 1 ? ww_devoe $end
$var wire 1 @ ww_devclrn $end
$var wire 1 A ww_devpor $end
$var wire 1 B ww_HEX [3] $end
$var wire 1 C ww_HEX [2] $end
$var wire 1 D ww_HEX [1] $end
$var wire 1 E ww_HEX [0] $end
$var wire 1 F ww_KEY [0] $end
$var wire 1 G ww_SW [10] $end
$var wire 1 H ww_SW [9] $end
$var wire 1 I ww_SW [8] $end
$var wire 1 J ww_SW [7] $end
$var wire 1 K ww_SW [6] $end
$var wire 1 L ww_SW [5] $end
$var wire 1 M ww_SW [4] $end
$var wire 1 N ww_SW [3] $end
$var wire 1 O ww_SW [2] $end
$var wire 1 P ww_SW [1] $end
$var wire 1 Q ww_SW [0] $end
$var wire 1 R ww_LEDR [7] $end
$var wire 1 S ww_LEDR [6] $end
$var wire 1 T ww_LEDR [5] $end
$var wire 1 U ww_LEDR [4] $end
$var wire 1 V ww_LEDR [3] $end
$var wire 1 W ww_LEDR [2] $end
$var wire 1 X ww_LEDR [1] $end
$var wire 1 Y ww_LEDR [0] $end
$var wire 1 Z \HEX[3]~output_o\ $end
$var wire 1 [ \HEX[2]~output_o\ $end
$var wire 1 \ \HEX[1]~output_o\ $end
$var wire 1 ] \HEX[0]~output_o\ $end
$var wire 1 ^ \LEDR[7]~output_o\ $end
$var wire 1 _ \LEDR[6]~output_o\ $end
$var wire 1 ` \LEDR[5]~output_o\ $end
$var wire 1 a \LEDR[4]~output_o\ $end
$var wire 1 b \LEDR[3]~output_o\ $end
$var wire 1 c \LEDR[2]~output_o\ $end
$var wire 1 d \LEDR[1]~output_o\ $end
$var wire 1 e \LEDR[0]~output_o\ $end
$var wire 1 f \SW[4]~input_o\ $end
$var wire 1 g \SW[3]~input_o\ $end
$var wire 1 h \SW[1]~input_o\ $end
$var wire 1 i \SW[2]~input_o\ $end
$var wire 1 j \inst|Mult0|auto_generated|cs2a[1]~0_combout\ $end
$var wire 1 k \SW[5]~input_o\ $end
$var wire 1 l \SW[0]~input_o\ $end
$var wire 1 m \SW[6]~input_o\ $end
$var wire 1 n \SW[7]~input_o\ $end
$var wire 1 o \inst|Mult0|auto_generated|op_1~1\ $end
$var wire 1 p \inst|Mult0|auto_generated|op_1~2_combout\ $end
$var wire 1 q \inst|Mult0|auto_generated|op_1~0_combout\ $end
$var wire 1 r \inst|Mult0|auto_generated|op_3~1\ $end
$var wire 1 s \inst|Mult0|auto_generated|op_3~3\ $end
$var wire 1 t \inst|Mult0|auto_generated|op_3~5\ $end
$var wire 1 u \inst|Mult0|auto_generated|op_3~6_combout\ $end
$var wire 1 v \SW[10]~input_o\ $end
$var wire 1 w \SW[9]~input_o\ $end
$var wire 1 x \inst|Mux0~1_combout\ $end
$var wire 1 y \SW[8]~input_o\ $end
$var wire 1 z \inst|Add0~0_combout\ $end
$var wire 1 { \inst|Add0~1_combout\ $end
$var wire 1 | \inst|Add0~2_combout\ $end
$var wire 1 } \inst|Add0~3_combout\ $end
$var wire 1 ~ \inst|Add0~5_cout\ $end
$var wire 1 !! \inst|Add0~7\ $end
$var wire 1 "! \inst|Add0~9\ $end
$var wire 1 #! \inst|Add0~11\ $end
$var wire 1 $! \inst|Add0~12_combout\ $end
$var wire 1 %! \inst|Mux0~0_combout\ $end
$var wire 1 &! \inst|Mux0~2_combout\ $end
$var wire 1 '! \inst|Mod0|auto_generated|divider|divider|selnose[0]~1_combout\ $end
$var wire 1 (! \inst|Mod0|auto_generated|divider|divider|StageOut[5]~0_combout\ $end
$var wire 1 )! \inst|Mod0|auto_generated|divider|divider|StageOut[5]~1_combout\ $end
$var wire 1 *! \inst|Mod0|auto_generated|divider|divider|selnose[5]~0_combout\ $end
$var wire 1 +! \inst|Mod0|auto_generated|divider|divider|StageOut[4]~2_combout\ $end
$var wire 1 ,! \inst|Mod0|auto_generated|divider|divider|add_sub_2_result_int[0]~1\ $end
$var wire 1 -! \inst|Mod0|auto_generated|divider|divider|add_sub_2_result_int[1]~3\ $end
$var wire 1 .! \inst|Mod0|auto_generated|divider|divider|add_sub_2_result_int[2]~4_combout\ $end
$var wire 1 /! \inst|Mod0|auto_generated|divider|divider|add_sub_2_result_int[2]~5\ $end
$var wire 1 0! \inst|Mod0|auto_generated|divider|divider|add_sub_2_result_int[3]~6_combout\ $end
$var wire 1 1! \inst|Mod0|auto_generated|divider|divider|StageOut[10]~3_combout\ $end
$var wire 1 2! \inst|Mod0|auto_generated|divider|divider|add_sub_2_result_int[1]~2_combout\ $end
$var wire 1 3! \inst|Mod0|auto_generated|divider|divider|StageOut[9]~4_combout\ $end
$var wire 1 4! \inst|Mod0|auto_generated|divider|divider|add_sub_2_result_int[0]~0_combout\ $end
$var wire 1 5! \inst|Mod0|auto_generated|divider|divider|StageOut[8]~5_combout\ $end
$var wire 1 6! \inst|Mod0|auto_generated|divider|divider|add_sub_3_result_int[0]~1\ $end
$var wire 1 7! \inst|Mod0|auto_generated|divider|divider|add_sub_3_result_int[1]~3\ $end
$var wire 1 8! \inst|Mod0|auto_generated|divider|divider|add_sub_3_result_int[2]~5\ $end
$var wire 1 9! \inst|Mod0|auto_generated|divider|divider|add_sub_3_result_int[3]~6_combout\ $end
$var wire 1 :! \inst|Mod0|auto_generated|divider|divider|add_sub_3_result_int[3]~7\ $end
$var wire 1 ;! \inst|Mod0|auto_generated|divider|divider|add_sub_3_result_int[4]~8_combout\ $end
$var wire 1 <! \inst|Mod0|auto_generated|divider|divider|StageOut[15]~6_combout\ $end
$var wire 1 =! \inst|Mux0~4_combout\ $end
$var wire 1 >! \inst|Mux0~5_combout\ $end
$var wire 1 ?! \inst|Mux0~3_combout\ $end
$var wire 1 @! \KEY[0]~input_o\ $end
$var wire 1 A! \inst2|dec_out[3]~0_combout\ $end
$var wire 1 B! \inst|Mod0|auto_generated|divider|divider|selnose[5]~2_combout\ $end
$var wire 1 C! \inst|Mult0|auto_generated|op_3~4_combout\ $end
$var wire 1 D! \inst|Add0~10_combout\ $end
$var wire 1 E! \inst|Mux1~2_combout\ $end
$var wire 1 F! \inst|Mod0|auto_generated|divider|divider|add_sub_3_result_int[2]~4_combout\ $end
$var wire 1 G! \inst|Mod0|auto_generated|divider|divider|StageOut[14]~7_combout\ $end
$var wire 1 H! \inst|Mux1~3_combout\ $end
$var wire 1 I! \inst|Mux1~0_combout\ $end
$var wire 1 J! \inst|Mux1~1_combout\ $end
$var wire 1 K! \inst2|dec_out[2]~1_combout\ $end
$var wire 1 L! \inst|Mult0|auto_generated|op_3~2_combout\ $end
$var wire 1 M! \inst|Add0~8_combout\ $end
$var wire 1 N! \inst|Mux2~0_combout\ $end
$var wire 1 O! \inst|Div0|auto_generated|divider|divider|add_sub_2_result_int[0]~1\ $end
$var wire 1 P! \inst|Div0|auto_generated|divider|divider|add_sub_2_result_int[1]~3\ $end
$var wire 1 Q! \inst|Div0|auto_generated|divider|divider|add_sub_2_result_int[2]~5\ $end
$var wire 1 R! \inst|Div0|auto_generated|divider|divider|add_sub_2_result_int[3]~6_combout\ $end
$var wire 1 S! \inst|Mod0|auto_generated|divider|divider|add_sub_3_result_int[1]~2_combout\ $end
$var wire 1 T! \inst|Mod0|auto_generated|divider|divider|StageOut[13]~8_combout\ $end
$var wire 1 U! \inst|Mux2~2_combout\ $end
$var wire 1 V! \inst|Mux2~3_combout\ $end
$var wire 1 W! \inst|Mux2~1_combout\ $end
$var wire 1 X! \inst2|dec_out[1]~2_combout\ $end
$var wire 1 Y! \inst|Mult0|auto_generated|op_3~0_combout\ $end
$var wire 1 Z! \inst|Div0|auto_generated|divider|divider|add_sub_2_result_int[2]~4_combout\ $end
$var wire 1 [! \inst|Div0|auto_generated|divider|divider|StageOut[10]~0_combout\ $end
$var wire 1 \! \inst|Div0|auto_generated|divider|divider|add_sub_2_result_int[1]~2_combout\ $end
$var wire 1 ]! \inst|Div0|auto_generated|divider|divider|StageOut[9]~1_combout\ $end
$var wire 1 ^! \inst|Div0|auto_generated|divider|divider|add_sub_2_result_int[0]~0_combout\ $end
$var wire 1 _! \inst|Div0|auto_generated|divider|divider|StageOut[8]~2_combout\ $end
$var wire 1 `! \inst|Div0|auto_generated|divider|divider|add_sub_3_result_int[0]~1_cout\ $end
$var wire 1 a! \inst|Div0|auto_generated|divider|divider|add_sub_3_result_int[1]~3_cout\ $end
$var wire 1 b! \inst|Div0|auto_generated|divider|divider|add_sub_3_result_int[2]~5_cout\ $end
$var wire 1 c! \inst|Div0|auto_generated|divider|divider|add_sub_3_result_int[3]~7_cout\ $end
$var wire 1 d! \inst|Div0|auto_generated|divider|divider|add_sub_3_result_int[4]~8_combout\ $end
$var wire 1 e! \inst|Mod0|auto_generated|divider|divider|add_sub_3_result_int[0]~0_combout\ $end
$var wire 1 f! \inst|Mux3~0_combout\ $end
$var wire 1 g! \inst|Mux3~1_combout\ $end
$var wire 1 h! \inst|Mux3~2_combout\ $end
$var wire 1 i! \inst|Add0~6_combout\ $end
$var wire 1 j! \inst|Mux3~3_combout\ $end
$var wire 1 k! \inst|Mux3~4_combout\ $end
$var wire 1 l! \inst2|dec_out[0]~3_combout\ $end
$var wire 1 m! \inst|Mult0|auto_generated|op_1~3\ $end
$var wire 1 n! \inst|Mult0|auto_generated|op_1~5\ $end
$var wire 1 o! \inst|Mult0|auto_generated|op_1~7\ $end
$var wire 1 p! \inst|Mult0|auto_generated|op_1~9\ $end
$var wire 1 q! \inst|Mult0|auto_generated|op_1~10_combout\ $end
$var wire 1 r! \inst|Mult0|auto_generated|op_1~8_combout\ $end
$var wire 1 s! \inst|Mult0|auto_generated|op_1~6_combout\ $end
$var wire 1 t! \inst|Mult0|auto_generated|op_1~4_combout\ $end
$var wire 1 u! \inst|Mult0|auto_generated|op_3~7\ $end
$var wire 1 v! \inst|Mult0|auto_generated|op_3~9\ $end
$var wire 1 w! \inst|Mult0|auto_generated|op_3~11\ $end
$var wire 1 x! \inst|Mult0|auto_generated|op_3~13\ $end
$var wire 1 y! \inst|Mult0|auto_generated|op_3~14_combout\ $end
$var wire 1 z! \inst|m[3]~8_combout\ $end
$var wire 1 {! \inst|Mult0|auto_generated|op_3~12_combout\ $end
$var wire 1 |! \inst|m[2]~9_combout\ $end
$var wire 1 }! \inst|Mult0|auto_generated|op_3~10_combout\ $end
$var wire 1 ~! \inst|m[1]~10_combout\ $end
$var wire 1 !" \inst|Mult0|auto_generated|op_3~8_combout\ $end
$var wire 1 "" \inst|m[0]~11_combout\ $end
$var wire 1 #" \inst|Mult0|auto_generated|le4a\ [5] $end
$var wire 1 $" \inst|Mult0|auto_generated|le4a\ [4] $end
$var wire 1 %" \inst|Mult0|auto_generated|le4a\ [3] $end
$var wire 1 &" \inst|Mult0|auto_generated|le4a\ [2] $end
$var wire 1 '" \inst|Mult0|auto_generated|le4a\ [1] $end
$var wire 1 (" \inst|Mult0|auto_generated|le4a\ [0] $end
$var wire 1 )" \inst|Mult0|auto_generated|le3a\ [5] $end
$var wire 1 *" \inst|Mult0|auto_generated|le3a\ [4] $end
$var wire 1 +" \inst|Mult0|auto_generated|le3a\ [3] $end
$var wire 1 ," \inst|Mult0|auto_generated|le3a\ [2] $end
$var wire 1 -" \inst|Mult0|auto_generated|le3a\ [1] $end
$var wire 1 ." \inst|Mult0|auto_generated|le3a\ [0] $end
$var wire 1 /" \inst|Mod0|auto_generated|divider|divider|selnose\ [19] $end
$var wire 1 0" \inst|Mod0|auto_generated|divider|divider|selnose\ [18] $end
$var wire 1 1" \inst|Mod0|auto_generated|divider|divider|selnose\ [17] $end
$var wire 1 2" \inst|Mod0|auto_generated|divider|divider|selnose\ [16] $end
$var wire 1 3" \inst|Mod0|auto_generated|divider|divider|selnose\ [15] $end
$var wire 1 4" \inst|Mod0|auto_generated|divider|divider|selnose\ [14] $end
$var wire 1 5" \inst|Mod0|auto_generated|divider|divider|selnose\ [13] $end
$var wire 1 6" \inst|Mod0|auto_generated|divider|divider|selnose\ [12] $end
$var wire 1 7" \inst|Mod0|auto_generated|divider|divider|selnose\ [11] $end
$var wire 1 8" \inst|Mod0|auto_generated|divider|divider|selnose\ [10] $end
$var wire 1 9" \inst|Mod0|auto_generated|divider|divider|selnose\ [9] $end
$var wire 1 :" \inst|Mod0|auto_generated|divider|divider|selnose\ [8] $end
$var wire 1 ;" \inst|Mod0|auto_generated|divider|divider|selnose\ [7] $end
$var wire 1 <" \inst|Mod0|auto_generated|divider|divider|selnose\ [6] $end
$var wire 1 =" \inst|Mod0|auto_generated|divider|divider|selnose\ [5] $end
$var wire 1 >" \inst|Mod0|auto_generated|divider|divider|selnose\ [4] $end
$var wire 1 ?" \inst|Mod0|auto_generated|divider|divider|selnose\ [3] $end
$var wire 1 @" \inst|Mod0|auto_generated|divider|divider|selnose\ [2] $end
$var wire 1 A" \inst|Mod0|auto_generated|divider|divider|selnose\ [1] $end
$var wire 1 B" \inst|Mod0|auto_generated|divider|divider|selnose\ [0] $end
$var wire 1 C" \inst|Div0|auto_generated|divider|divider|selnose\ [19] $end
$var wire 1 D" \inst|Div0|auto_generated|divider|divider|selnose\ [18] $end
$var wire 1 E" \inst|Div0|auto_generated|divider|divider|selnose\ [17] $end
$var wire 1 F" \inst|Div0|auto_generated|divider|divider|selnose\ [16] $end
$var wire 1 G" \inst|Div0|auto_generated|divider|divider|selnose\ [15] $end
$var wire 1 H" \inst|Div0|auto_generated|divider|divider|selnose\ [14] $end
$var wire 1 I" \inst|Div0|auto_generated|divider|divider|selnose\ [13] $end
$var wire 1 J" \inst|Div0|auto_generated|divider|divider|selnose\ [12] $end
$var wire 1 K" \inst|Div0|auto_generated|divider|divider|selnose\ [11] $end
$var wire 1 L" \inst|Div0|auto_generated|divider|divider|selnose\ [10] $end
$var wire 1 M" \inst|Div0|auto_generated|divider|divider|selnose\ [9] $end
$var wire 1 N" \inst|Div0|auto_generated|divider|divider|selnose\ [8] $end
$var wire 1 O" \inst|Div0|auto_generated|divider|divider|selnose\ [7] $end
$var wire 1 P" \inst|Div0|auto_generated|divider|divider|selnose\ [6] $end
$var wire 1 Q" \inst|Div0|auto_generated|divider|divider|selnose\ [5] $end
$var wire 1 R" \inst|Div0|auto_generated|divider|divider|selnose\ [4] $end
$var wire 1 S" \inst|Div0|auto_generated|divider|divider|selnose\ [3] $end
$var wire 1 T" \inst|Div0|auto_generated|divider|divider|selnose\ [2] $end
$var wire 1 U" \inst|Div0|auto_generated|divider|divider|selnose\ [1] $end
$var wire 1 V" \inst|Div0|auto_generated|divider|divider|selnose\ [0] $end
$var wire 1 W" \inst|Mult0|auto_generated|le5a\ [4] $end
$var wire 1 X" \inst|Mult0|auto_generated|le5a\ [3] $end
$var wire 1 Y" \inst|Mult0|auto_generated|le5a\ [2] $end
$var wire 1 Z" \inst|Mult0|auto_generated|le5a\ [1] $end
$var wire 1 [" \inst|Mult0|auto_generated|le5a\ [0] $end
$upscope $end
$upscope $end
$enddefinitions $end
#0
$dumpvars
09
1:
x;
1<
1=
1>
1?
1@
1A
0Z
0[
0\
0]
0^
0_
0`
0a
1b
0c
0d
1e
0f
0g
0h
0i
0j
1k
1l
0m
1n
0o
1p
0q
0r
1s
0t
1u
0v
0w
0x
1y
1z
1{
1|
0}
1~
1!!
1"!
0#!
1$!
0%!
1&!
1'!
0(!
0)!
0*!
0+!
1,!
0-!
0.!
1/!
00!
01!
02!
03!
04!
05!
06!
17!
08!
19!
1:!
1;!
0<!
0=!
0>!
1?!
0@!
0A!
1B!
0C!
0D!
0E!
1F!
0G!
0H!
0I!
0J!
0K!
1L!
0M!
0N!
1O!
0P!
1Q!
0R!
1S!
0T!
0U!
0V!
0W!
0X!
0Y!
0Z!
0[!
0\!
0]!
0^!
0_!
0`!
1a!
0b!
1c!
1d!
1e!
0f!
0g!
0h!
1i!
1j!
1k!
0l!
1m!
0n!
1o!
0p!
1q!
0r!
0s!
0t!
1u!
0v!
1w!
0x!
0y!
0z!
0{!
0|!
0}!
0~!
0!"
0""
0B
0C
0D
0E
0R
0S
0T
0U
1V
0W
0X
1Y
0%
0.
0/
10
11
02
13
04
05
06
07
18
0F
0G
0H
1I
1J
0K
1L
0M
0N
0O
0P
1Q
0#"
0$"
0%"
0&"
0'"
0("
x)"
0*"
1+"
0,"
1-"
0."
x/"
x0"
x1"
x2"
x3"
x4"
x5"
x6"
x7"
x8"
x9"
x:"
x;"
x<"
x="
x>"
x?"
x@"
xA"
0B"
xC"
xD"
xE"
xF"
xG"
xH"
xI"
xJ"
xK"
0L"
xM"
xN"
xO"
xP"
xQ"
xR"
xS"
xT"
xU"
xV"
xW"
0X"
0Y"
0Z"
0["
0!
0"
0#
0$
0&
0'
0(
0)
1*
0+
0,
1-
$end
#80000
1%
1/
01
14
15
16
1F
1O
1N
1M
0J
1H
1w
0n
1f
1g
1i
1@!
1A!
1l!
1j
0{
1.!
0/!
0F!
1Z!
0Q!
1#"
0z
0'!
15!
09!
1L"
1_!
1Z"
1."
0i!
0!!
0e!
16!
1`!
1f!
1["
0+"
0$!
1B"
1*!
1$"
1x
1%!
1=!
1E!
1U!
1g!
1h!
0h!
1V!
1H!
1>!
1I!
1N!
0k!
1r!
0?!
0p
1!"
1M!
1Y!
1s!
0a!
07!
1T!
1$!
1q
0q!
1R!
10!
1D!
1#!
1%"
1&"
1t!
0s!
0o!
0$!
1y!
1C!
1F!
1}!
0u
0A!
1{!
0l!
1]
1Z
0r!
1p!
0}!
0!"
1v!
1E
1B
0b
0e
1$
1!
1}!
1q!
0{!
0V
0Y
0]
0Z
0-
0*
0y!
0E
0B
0$
0!
#160000
0%
0/
05
00
12
08
0F
0Q
0N
1K
0I
0H
0w
0y
1m
0g
0l
0@!
0-"
0."
14!
1e!
1^!
0#"
1("
19!
0$"
0Z"
0["
0D!
0#!
1(!
1+!
0&"
1{
0|
0~
0x
0%!
0>!
0H!
1h!
1?!
1W!
0&!
1J!
0j!
1k!
1i!
1!!
0M!
1D!
0t!
12!
13!
1\!
1]!
1$!
0I!
1!"
0v!
1s!
1o!
1r!
0p!
0C!
1t
1'"
0q
0%"
1&"
0q!
0Y!
0L!
1y!
1t!
0s!
1C!
0t
0u!
1q!
1{!
0r!
0J!
1&!
1b!
0F!
18!
1G!
0!"
1I!
0N!
1M!
0"!
1j!
0k!
0?!
1k!
0D!
1N!
0W!
1H!
09!
0:!
0c!
1?!
0{!
0y!
1u
1u!
1J!
0}!
1v!
1e
1c
1d
1b
1}!
1!"
0v!
0d!
0;!
1W!
0I!
1Y
1W
1X
1V
0b
0e
0c
1-
1,
1+
1*
0J!
0G!
0}!
0V
0Y
0W
1c
1b
0d
1e
0-
0+
0*
0H!
1W
1V
0X
1Y
1d
1-
0,
1+
1*
1X
0c
1,
0W
0+
#240000
1/
15
02
04
1.
17
1P
1N
0M
0K
1H
1G
1v
1w
0m
0f
1g
1h
0j
1Y!
1|
02!
0S!
0\!
1*"
1}!
1{!
1y!
1z
19!
1:!
1c!
1Z"
0("
1-"
1."
0i!
0e!
1+"
1D!
1#!
0(!
0+!
0&"
1>!
1H!
0g!
0h!
1%!
0&!
0N!
0W!
0?!
12!
1-!
1\!
1P!
1I!
1p
0f!
0j!
0Y!
1r
1L!
0C!
1s!
1d!
1;!
1<!
0]!
0T!
03!
0M!
1"!
0'"
0D!
0#!
1F!
08!
0b!
0<!
1T!
0}!
0w!
0L!
0s
0k!
1J!
0Z!
0.!
1W!
1?!
1C!
0{!
1x!
09!
0$!
0b
0d
0y!
0V
0X
1b
1d
1c
0e
0,
0*
1V
1X
1W
0Y
0-
1,
1+
1*
#320000
0/
05
14
0.
18
11
03
1Q
0N
1M
0L
1J
0H
0G
0v
0w
1n
0k
1f
0g
1l
1}
1(!
1#"
0z
19!
1("
0."
1i!
1f!
1["
1,"
1M!
0"!
0,!
05!
0O!
0_!
0Z"
0+"
1$!
1)!
1X"
0>!
0H!
0%!
0W!
0I!
0?!
1.!
11!
1Z!
1[!
1&!
0p
0s!
1a!
0\!
1S!
17!
0T!
02!
1D!
1#!
1N!
0!"
1v!
1g!
1j!
1Y!
0r
0C!
1t
0$!
1o
1%"
1&"
0i!
0!!
0M!
1"!
0j!
0t!
1n!
1s!
1p
0&!
1L!
1s
1k!
1h!
1W!
1$!
1I!
0V!
0F!
1?!
0c!
09!
0:!
1<!
0J!
1>!
0;!
0d!
1J!
1&!
1C!
0t
0?!
0u
0u!
1}!
0s!
0o!
1!"
0v!
0k!
0D!
0#!
0N!
0b
0d
0W!
0$!
0I!
1r!
1w!
0!"
1v!
1u
1u!
0<!
1T!
0f!
1?!
0V
0X
0c
1b
1d
1e
0,
0*
0g!
1V!
0>!
1!"
0v!
0}!
0w!
0J!
0&!
0W
1V
1X
1Y
0e
0b
1c
1-
1,
0+
1*
1{!
1}!
1w!
0?!
0h!
0Y
0V
1W
1b
0d
0-
1+
0*
0{!
1V
0X
0c
0,
1*
0W
0b
0+
0V
0*
#400000
08
01
12
06
0Q
0O
1K
0J
0n
1m
0i
0l
0-"
1."
0}
04!
1,!
1e!
0^!
1O!
0#"
1j
0{
1'!
0.!
1/!
1F!
0Z!
1Q!
0["
1D!
0(!
1+!
1$!
0)!
0X"
0%"
1s!
1o!
1.!
0/!
1Z!
0Q!
1&!
13!
1]!
1I!
0!"
0R!
0[!
1G!
00!
01!
0D!
1q
0o
0P!
1f!
0-!
1i!
1!!
0Y!
1r
0L!
1L!
1M!
0"!
1j!
0.!
1/!
1g!
0Z!
1Q!
0p
0C!
1t
0I!
19!
1:!
03!
1H!
1c!
0L"
0]!
1J!
1b!
0F!
18!
1?!
1R!
1[!
10!
11!
0r!
0}!
0w!
13!
1L"
1]!
0:!
0c!
0b!
1d!
1F!
08!
0G!
1;!
1<!
0J!
0R!
0[!
1h!
00!
01!
1k!
1D!
1#!
1N!
0$!
1I!
03!
0L"
0]!
1>!
0<!
0T!
0H!
1:!
1c!
0d!
0;!
1b!
1W!
0F!
18!
1G!
1b
1c
1H!
09!
0:!
0c!
1<!
1T!
1d!
1;!
0V!
0>!
0b!
1F!
08!
0G!
1J!
0&!
1V
1W
1e
0c
1+
1*
0H!
19!
1:!
1c!
0?!
0T!
1V!
1>!
0d!
0;!
0<!
1Y
0W
1d
1-
0+
0>!
1G!
1T!
0V!
1d!
1;!
1<!
1X
1c
1,
1>!
0<!
0G!
0T!
1V!
1H!
1W
0b
1+
0V!
0H!
0>!
0V
0*
#480000
18
11
02
13
1%
10
1Q
1L
0K
1J
1I
1F
1@!
1y
1n
0m
1k
1l
0."
0e!
1'"
0M!
1"!
0D!
1(!
0+!
0&"
1$!
0*!
1%"
1z
1{
0|
1~
0=!
1>!
0E!
1H!
1V!
1K!
1X!
1l!
0H!
0>!
0i!
0!!
1M!
0"!
0$!
0s!
0o!
1&!
1t!
0n!
12!
1-!
1\!
1P!
1)!
0I!
0#!
0N!
0u
0u!
1Y!
0r
0L!
0W!
1$!
0J!
1]!
13!
1s!
1o!
1v!
1r!
1}!
1w!
0&!
1D!
1#!
1N!
0M!
1"!
0j!
1?!
1]
1\
1[
1A!
0k!
0D!
0#!
1W!
0$!
1I!
0?!
0r!
0w!
0F!
18!
1G!
1b!
0K!
1&!
0X!
0N!
1E
1D
1C
1$
1#
1"
0W!
1?!
0c!
09!
0:!
0A!
1J!
0&!
1X!
1$!
0I!
0l!
1b
0c
0d
0J!
1&!
0?!
1K!
0;!
0d!
1A!
0X!
1V
0W
0X
0\
0[
0b
1d
0e
1Z
0,
0+
1*
0G!
1T!
0A!
1?!
0K!
0D
0C
0V
1X
0Y
1B
0]
1\
1c
0Z
1b
0d
0#
0"
1!
0-
1,
0*
1A!
0E
1D
1W
0B
1V
0X
0\
1Z
1[
0b
0c
0$
1#
0!
0,
1+
1*
0D
1B
1C
0V
0W
0[
1b
0Z
0#
1"
1!
0+
0*
0C
1V
0B
1Z
0"
0!
1*
1B
1!
#560000
0%
16
1/
0F
1O
1H
1w
1i
0@!
0A!
1#"
0j
0{
0'!
1*!
1.!
0/!
1F!
08!
1Z!
0Q!
0b!
1X"
1Z"
1["
1x
1%!
1=!
1E!
0U!
0h!
0V!
1H!
1>!
0?!
1W!
1I!
1N!
1j!
1k!
1!"
0s!
0o!
1c!
1R!
1[!
19!
1:!
1G!
10!
11!
1D!
1#!
0'"
0q
1o
1p
1C!
0t
1u
1u!
0$!
09!
0:!
03!
15!
1;!
1<!
0c!
1L"
0]!
1_!
1d!
1r!
0}!
0Z
1{!
0k!
0a!
0W!
0d!
0S!
07!
0F!
0G!
0;!
0!"
0B
1e
1d
0b
0!
0<!
1F!
0T!
1k!
1Y
1X
0V
1-
1,
0*
1G!
0d
0e
0X
0Y
1e
0-
0,
1Y
1-
#640000
1%
06
08
01
12
15
04
1.
07
1F
0Q
0P
0O
1N
0M
1K
0J
1G
1v
0n
1m
0f
1g
0i
0h
0l
1@!
1l!
1}
14!
1^!
0Y!
1|
02!
0-!
1S!
0\!
0P!
1U!
1}!
1w!
0{!
1y!
1{
0.!
1/!
0F!
18!
0Z!
1Q!
1b!
0z
19!
1:!
1c!
1'"
1i!
1!!
0f!
0["
0,"
0D!
0#!
1+!
1Y"
1$!
0)!
0X"
1$"
0%"
0*"
0x
1J!
0N!
0t!
1s!
1o!
0q!
0&!
1p!
12!
1\!
1q
0o
1!"
0v!
0j!
0u
0u!
1d!
1;!
1<!
0c!
0R!
0[!
09!
0:!
0G!
00!
01!
1D!
1{!
0x!
1V!
1]!
1T!
13!
0i!
0!!
1M!
1F!
19!
1:!
0;!
1c!
0d!
0<!
1G!
0k!
0p
0C!
1t
1q!
1?!
0r!
1W!
1K!
1]
1X!
0{!
1A!
0y!
0l!
1d!
1;!
1<!
1E
1c
1$
0<!
1W
1[
1d
1b
0e
1+
1C
1X
1V
0Y
0]
1Z
1\
1"
0-
1,
1*
0E
1B
1D
0$
1#
1!
#720000
0%
16
02
05
14
0/
03
0F
1O
0N
1M
0L
0K
0H
0w
0m
0k
1f
0g
1i
0@!
0A!
0K!
0X!
1j
0{
1.!
0/!
0F!
1Z!
0Q!
0#"
1z
09!
0:!
0L"
0c!
0$"
1i!
1e!
1f!
0'"
0M!
04!
0^!
0Z"
0D!
0+!
0Y"
1%"
1&"
0=!
0E!
0U!
0g!
1h!
0h!
0V!
0H!
0>!
1t!
02!
0\!
0_!
05!
1u
1u!
1j!
0p!
0d!
0;!
0$!
0q
0q!
1R!
1[!
10!
11!
1D!
1#!
0%"
0&"
0t!
0s!
1$!
19!
01!
1L"
0[!
1y!
1C!
0t
0G!
1q!
1k!
0S!
0]!
03!
0?!
0I!
0W!
0j!
0\
0[
0Z
0k!
1F!
08!
0b!
0T!
0y!
0u
0J!
09!
1<!
0}!
0!"
0D
0C
0B
0#
0"
0!
0<!
1c!
19!
1:!
1G!
0d
0b
1e
1;!
1<!
1d!
0X
0V
1Y
0c
0e
1-
0,
0*
0<!
0G!
0W
0Y
0-
0+
#800000
1/
13
17
1P
1L
1H
1w
1k
1h
1#"
0j
1+"
1."
1Y!
0|
0(!
12!
1-!
1S!
17!
1\!
1P!
1a!
1$"
1*"
1["
1}!
1{!
1y!
1'"
1M!
14!
15!
1^!
1_!
1Z"
1E!
1g!
1h!
1j!
1H!
1s!
0a!
0S!
07!
1u
1!"
1t!
1r!
0Z!
0F!
1T!
0.!
0M!
0Y!
1r
1p
0'"
1q
1%"
0q!
0y!
0s!
0o!
0C!
1t
1L!
0{!
1x!
0!"
1v!
1F!
0}!
0w!
1I!
1k!
1{!
1y!
0u
0u!
1J!
0r!
1p!
1q!
0{!
1!"
1e
0y!
1Y
1c
1-
1W
1+
