2Semestre/LSD/Aulas/aula01/Parte4/simulation/qsim/EqCmpDemo.msim.vcd
$comment
	File created using the following command:
		vcd file EqCmpDemo.msim.vcd -direction
$end
$date
	Sat Mar 18 21:09:39 2023
$end
$version
	Questa Intel Starter FPGA Edition Version 2021.2
$end
$timescale
	1ps
$end

$scope module eqcmpdemo_vhd_vec_tst $end
$var wire 1 ! LEDG [0] $end
$var wire 1 " SW [15] $end
$var wire 1 # SW [14] $end
$var wire 1 $ SW [13] $end
$var wire 1 % SW [12] $end
$var wire 1 & SW [11] $end
$var wire 1 ' SW [10] $end
$var wire 1 ( SW [9] $end
$var wire 1 ) SW [8] $end
$var wire 1 * SW [7] $end
$var wire 1 + SW [6] $end
$var wire 1 , SW [5] $end
$var wire 1 - SW [4] $end
$var wire 1 . SW [3] $end
$var wire 1 / SW [2] $end
$var wire 1 0 SW [1] $end
$var wire 1 1 SW [0] $end

$scope module i1 $end
$var wire 1 2 gnd $end
$var wire 1 3 vcc $end
$var wire 1 4 unknown $end
$var wire 1 5 devoe $end
$var wire 1 6 devclrn $end
$var wire 1 7 devpor $end
$var wire 1 8 ww_devoe $end
$var wire 1 9 ww_devclrn $end
$var wire 1 : ww_devpor $end
$var wire 1 ; ww_LEDG [0] $end
$var wire 1 < ww_SW [15] $end
$var wire 1 = ww_SW [14] $end
$var wire 1 > ww_SW [13] $end
$var wire 1 ? ww_SW [12] $end
$var wire 1 @ ww_SW [11] $end
$var wire 1 A ww_SW [10] $end
$var wire 1 B ww_SW [9] $end
$var wire 1 C ww_SW [8] $end
$var wire 1 D ww_SW [7] $end
$var wire 1 E ww_SW [6] $end
$var wire 1 F ww_SW [5] $end
$var wire 1 G ww_SW [4] $end
$var wire 1 H ww_SW [3] $end
$var wire 1 I ww_SW [2] $end
$var wire 1 J ww_SW [1] $end
$var wire 1 K ww_SW [0] $end
$var wire 1 L \LEDG[0]~output_o\ $end
$var wire 1 M \SW[5]~input_o\ $end
$var wire 1 N \SW[13]~input_o\ $end
$var wire 1 O \SW[12]~input_o\ $end
$var wire 1 P \SW[4]~input_o\ $end
$var wire 1 Q \inst|Equal0~2_combout\ $end
$var wire 1 R \SW[6]~input_o\ $end
$var wire 1 S \SW[15]~input_o\ $end
$var wire 1 T \SW[14]~input_o\ $end
$var wire 1 U \SW[7]~input_o\ $end
$var wire 1 V \inst|Equal0~3_combout\ $end
$var wire 1 W \SW[1]~input_o\ $end
$var wire 1 X \SW[9]~input_o\ $end
$var wire 1 Y \SW[8]~input_o\ $end
$var wire 1 Z \SW[0]~input_o\ $end
$var wire 1 [ \inst|Equal0~0_combout\ $end
$var wire 1 \ \SW[11]~input_o\ $end
$var wire 1 ] \SW[10]~input_o\ $end
$var wire 1 ^ \SW[2]~input_o\ $end
$var wire 1 _ \SW[3]~input_o\ $end
$var wire 1 ` \inst|Equal0~1_combout\ $end
$var wire 1 a \inst|Equal0~4_combout\ $end
$upscope $end
$upscope $end
$enddefinitions $end
#0
$dumpvars
02
13
x4
15
16
17
18
19
1:
0L
0M
0N
0O
1P
0Q
0R
0S
0T
1U
0V
0W
0X
0Y
1Z
0[
1\
1]
0^
0_
0`
0a
0"
0#
0$
0%
1&
1'
0(
0)
1*
0+
0,
1-
0.
0/
00
11
0<
0=
0>
0?
1@
1A
0B
0C
1D
0E
0F
1G
0H
0I
0J
1K
0!
0;
$end
#20000
1"
1#
1$
1%
1(
1)
1+
1,
1.
1/
10
1J
1I
1H
1F
1E
1C
1B
1?
1>
1=
1<
1S
1T
1N
1O
1X
1Y
1R
1M
1_
1^
1W
1`
1[
1Q
1V
1a
1L
1;
1!
#40000
0,
0&
0'
0*
0-
01
0K
0G
0F
0D
0A
0@
0\
0]
0U
0M
0P
0Z
0[
0Q
0V
0`
0a
0L
0;
0!
#60000
1*
11
0"
0(
0+
0.
00
1K
0J
0H
0E
1D
0B
0<
0S
0X
1U
0R
0_
0W
1Z
1[
#80000
0*
1"
1(
1+
1,
1&
1'
1-
0#
0%
1G
1F
1E
0D
1B
1A
1@
0?
0=
1<
1S
0T
0O
1\
1]
1X
0U
1R
1M
1P
0[
#100000
1*
0"
0(
0&
01
1.
0)
0K
1H
1D
0C
0B
0@
0<
0S
0\
0X
0Y
1U
1_
0Z
1[
#120000
0*
1"
11
0.
0,
0'
0-
1#
1%
10
0$
1K
1J
0H
0G
0F
0D
0A
1?
0>
1=
1<
1S
1T
0N
1O
0]
0U
0M
0P
0_
1W
1Z
0[
#140000
0"
1-
0%
00
1$
1&
0+
0/
0J
0I
1G
0E
1@
0?
1>
0<
0S
1N
0O
1\
0R
1P
0^
0W
#160000
1"
0-
1%
0$
0&
1+
1/
01
1,
1'
0#
1(
0K
1I
0G
1F
1E
1B
1A
0@
1?
0>
0=
1<
1S
0T
0N
1O
0\
1]
1X
1R
1M
0P
1^
0Z
1`
#180000
1-
0%
1$
1&
0/
11
0'
1#
0(
1.
1K
0I
1H
1G
0B
0A
1@
0?
1>
1=
1T
1N
0O
1\
0]
0X
1P
1_
0^
1Z
#200000
1/
01
0#
1(
0.
1*
0K
1I
0H
1D
1B
0=
0T
1X
1U
0_
1^
0Z
0`
#220000
0/
1.
0*
0-
0$
1'
0"
0+
0,
10
1J
0I
1H
0G
0F
0E
0D
1A
0>
0<
0S
0N
1]
0U
0R
0M
0P
1_
0^
1W
1[
1Q
1V
#240000
0.
1$
0'
1"
1,
00
0&
0J
0H
1F
0A
0@
1>
1<
1S
1N
0\
0]
1M
0_
0W
0[
1`
0V
#260000
1.
0$
0,
10
1&
1/
1-
11
1)
1K
1J
1I
1H
1G
0F
1C
1@
0>
0N
1\
1Y
0M
1P
1_
1^
1W
1Z
1[
0`
0Q
#280000
1$
0&
0/
0-
01
0)
1'
0"
1*
1+
1#
0(
0K
0I
0G
1E
1D
0C
0B
1A
0@
1>
1=
0<
0S
1T
1N
0\
1]
0X
0Y
1U
1R
0P
0^
0Z
0[
#300000
0$
1/
1-
11
0*
0#
1(
00
1K
0J
1I
1G
0D
1B
0>
0=
0T
0N
1X
0U
1P
1^
0W
1Z
#320000
1*
0(
10
1&
1)
1"
1,
1J
1F
1D
1C
0B
1@
1<
1S
1\
0X
1Y
1U
1M
1W
1`
#340000
1(
00
0)
0"
0-
0'
1%
0J
0G
0C
1B
0A
1?
0<
0S
1O
0]
1X
0Y
0P
0W
0`
#360000
10
1-
0*
0,
1$
01
1#
0+
0.
0K
1J
0H
1G
0F
0E
0D
1>
1=
1T
1N
0U
0R
0M
1P
0_
1W
0Z
1[
#380000
0-
1,
0#
1+
1.
0(
1)
1"
0%
1H
0G
1F
1E
1C
0B
0?
0=
1<
1S
0T
0O
0X
1Y
1R
1M
0P
1_
0[
1Q
#400000
1-
0,
0)
0"
1'
0&
0/
0I
1G
0F
0C
1A
0@
0<
0S
0\
1]
0Y
0M
1P
0^
0Q
#420000
1,
0'
1/
0+
1(
1%
0$
11
1K
1I
1F
0E
1B
0A
1?
0>
0N
1O
0]
1X
0R
1M
1^
1Z
1V
#440000
0,
1'
0(
01
0-
1"
1&
00
0K
0J
0G
0F
0B
1A
1@
1<
1S
1\
1]
0X
0M
0P
0W
0Z
1[
1`
0V
#460000
0"
10
0/
1+
1#
1*
1J
0I
1E
1D
1=
0<
0S
1T
1U
1R
0^
1W
0[
0`
#480000
00
0+
0#
1,
1(
11
0%
1$
1K
0J
1F
0E
1B
0?
1>
0=
0T
1N
0O
1X
0R
1M
0W
1Z
1Q
#500000
1+
0(
0$
0*
0'
1)
0.
0H
1E
0D
1C
0B
0A
0>
0N
0]
0X
1Y
0U
1R
0_
1[
0Q
#520000
1$
1*
1'
0)
01
1%
1"
1/
0&
0K
1I
1D
0C
1A
0@
1?
1>
1<
1S
1N
1O
0\
1]
0Y
1U
1^
0Z
1`
#540000
0$
0*
0'
11
0%
0/
1&
0+
1(
1.
0,
1K
0I
1H
0F
0E
0D
1B
0A
1@
0?
0>
0N
0O
1\
0]
1X
0U
0R
0M
1_
0^
1Z
0[
1Q
#560000
1'
01
1%
1+
1-
0K
1G
1E
1A
1?
1O
1]
1R
1P
0Z
0`
#580000
0'
11
1$
1/
0&
0(
1,
1)
0"
10
1K
1J
1I
1F
1C
0B
0A
0@
1>
0<
0S
1N
0\
0]
0X
1Y
1M
1^
1W
1Z
#600000
01
1(
0)
00
0+
1*
0.
1#
0K
0J
0H
0E
1D
0C
1B
1=
1T
1X
0Y
1U
0R
0_
0W
0Z
#620000
11
0(
0*
1.
1'
0/
1"
1K
0I
1H
0D
0B
1A
1<
1S
1]
0X
0U
1_
0^
1Z
#640000
01
1*
0'
1/
1)
10
1+
0#
0$
0,
0%
0K
1J
1I
0F
1E
1D
1C
0A
0?
0>
0=
0T
0N
0O
0]
1Y
1U
1R
0M
1^
1W
0Z
0Q
#660000
11
0*
0+
1#
1$
1,
1%
0-
1K
0G
1F
0E
0D
1?
1>
1=
1T
1N
1O
0U
0R
1M
0P
1Z
#680000
01
1*
0#
0,
1-
0/
0)
0.
1&
0K
0I
0H
1G
0F
1D
0C
1@
0=
0T
1\
0Y
1U
0M
1P
0_
0^
0Z
1V
#700000
0*
1#
1,
1+
0$
1(
0"
1F
1E
0D
1B
0>
1=
0<
0S
1T
0N
1X
0U
1R
1M
1[
#720000
0#
0(
1"
11
1.
0&
1K
1H
0B
0@
0=
1<
1S
0T
0\
0X
1_
1Z
0[
0V
#740000
1(
0"
0.
1&
0,
1$
1/
0%
00
0J
1I
0H
0F
1B
1@
0?
1>
0<
0S
1N
0O
1\
1X
0M
0_
1^
0W
#760000
0(
1"
1,
1%
0-
1)
1'
0G
1F
1C
0B
1A
1?
1<
1S
1O
1]
0X
1Y
1M
0P
1[
#780000
1(
0"
0,
0)
0'
0&
0$
0/
10
1#
01
0K
1J
0I
0F
0C
1B
0A
0@
0>
1=
0<
0S
1T
0N
0\
0]
1X
0Y
0M
0^
1W
0Z
1`
1V
#800000
1,
1)
1'
1$
1/
00
1-
1.
1*
0J
1I
1H
1G
1F
1D
1C
1A
1>
1N
1]
1Y
1U
1M
1P
1_
1^
0W
0V
0[
0`
1Q
#820000
0/
0-
0.
1"
1&
0%
0I
0H
0G
1@
0?
1<
1S
0O
1\
0P
0_
0^
1V
#840000
0"
0&
0'
0$
0#
11
1K
0A
0@
0>
0=
0<
0S
0T
0N
0\
0]
1Z
1`
0Q
0V
#860000
1"
1&
1$
1/
0,
0*
0(
0+
1I
0F
0E
0D
0B
1@
1>
1<
1S
1N
1\
0X
0U
0R
0M
1^
1[
0`
#880000
0&
0$
0/
1,
1(
1+
1'
1-
0I
1G
1F
1E
1B
1A
0@
0>
0N
0\
1]
1X
1R
1M
1P
0^
0[
#900000
1&
1$
1/
0+
0'
1#
01
1%
10
0K
1J
1I
0E
0A
1@
1?
1>
1=
1T
1N
1O
1\
0]
0R
1^
1W
0Z
1Q
#920000
0$
0/
1+
0#
0"
0)
0I
1E
0C
0>
0=
0<
0S
0T
0N
0Y
1R
0^
1[
0Q
#940000
1/
0+
1#
0&
1'
11
1.
1K
1I
1H
0E
1A
0@
1=
1T
0\
1]
0R
1_
1^
1Z
0[
#960000
0/
1+
01
0.
1$
1"
1)
0,
0(
0-
0K
0I
0H
0G
0F
1E
1C
0B
1>
1<
1S
1N
0X
1Y
1R
0M
0P
0_
0^
0Z
#980000
11
0$
0"
1-
0#
0'
0%
1*
1K
1G
1D
0A
0?
0>
0=
0<
0S
0T
0N
0O
0]
1U
1P
1Z
1`
