2Semestre/LSD/Aulas/aula04/Parte1/simulation/qsim/FlipFlopD_Demo.msim.vcd
$comment
	File created using the following command:
		vcd file FlipFlopD_Demo.msim.vcd -direction
$end
$date
	Mon Apr  3 19:51:39 2023
$end
$version
	Questa Intel Starter FPGA Edition Version 2021.2
$end
$timescale
	1ps
$end

$scope module flipflopd_vhd_vec_tst $end
$var wire 1 ! clk $end
$var wire 1 " d $end
$var wire 1 # q $end
$var wire 1 $ reset $end
$var wire 1 % set $end

$scope module i1 $end
$var wire 1 & gnd $end
$var wire 1 ' vcc $end
$var wire 1 ( unknown $end
$var wire 1 ) devoe $end
$var wire 1 * devclrn $end
$var wire 1 + devpor $end
$var wire 1 , ww_devoe $end
$var wire 1 - ww_devclrn $end
$var wire 1 . ww_devpor $end
$var wire 1 / ww_clk $end
$var wire 1 0 ww_set $end
$var wire 1 1 ww_reset $end
$var wire 1 2 ww_d $end
$var wire 1 3 ww_q $end
$var wire 1 4 \q~output_o\ $end
$var wire 1 5 \clk~input_o\ $end
$var wire 1 6 \d~input_o\ $end
$var wire 1 7 \set~input_o\ $end
$var wire 1 8 \reset~input_o\ $end
$var wire 1 9 \q~0_combout\ $end
$var wire 1 : \q~reg0_q\ $end
$upscope $end
$upscope $end
$enddefinitions $end
#0
$dumpvars
0!
0"
0#
0$
0%
0&
1'
x(
1)
1*
1+
1,
1-
1.
0/
00
01
02
03
04
05
06
07
08
09
0:
$end
#10000
1!
1/
15
#20000
0!
1%
0/
10
17
05
#30000
1!
1/
15
#40000
0!
0/
05
#50000
1!
1$
1/
11
18
15
#60000
0!
0/
05
#70000
1!
1/
15
#80000
0!
1"
0/
12
16
05
#90000
1!
1/
15
#100000
0!
0/
05
#110000
1!
1/
15
#120000
0!
0"
0$
0/
02
01
08
06
05
#130000
1!
1/
15
#140000
0!
0/
05
#150000
1!
1/
15
#160000
0!
1"
0/
12
16
05
19
#170000
1!
1/
15
1:
14
13
1#
#180000
0!
0/
05
#190000
1!
1/
15
#200000
0!
0"
0/
02
06
05
09
#210000
1!
1/
15
0:
04
03
0#
#220000
0!
0/
05
#230000
1!
1/
15
#240000
0!
0/
05
#250000
1!
0%
1/
00
07
15
#260000
0!
0/
05
#270000
1!
1/
15
#280000
0!
1"
0/
12
16
05
#290000
1!
1/
15
#300000
0!
0/
05
#310000
1!
1%
1/
10
17
15
19
#320000
0!
0"
0/
02
06
05
09
#330000
1!
1/
15
#340000
0!
0/
05
#350000
1!
1/
15
#360000
0!
1"
0/
12
16
05
19
#370000
1!
1/
15
1:
14
13
1#
#380000
0!
0/
05
#390000
1!
1/
15
#400000
0!
0/
05
#410000
1!
1/
15
#420000
0!
0/
05
#430000
1!
1/
15
#440000
0!
0/
05
#450000
1!
1/
15
#460000
0!
0/
05
#470000
1!
1/
15
#480000
0!
0"
0/
02
06
05
09
#490000
1!
1/
15
0:
04
03
0#
#500000
0!
0/
05
#510000
1!
1/
15
#520000
0!
0/
05
#530000
1!
1/
15
#540000
0!
0/
05
#550000
1!
1/
15
#560000
0!
1"
0/
12
16
05
19
#570000
1!
1/
15
1:
14
13
1#
#580000
0!
0/
05
#590000
1!
1/
15
#600000
0!
0"
0/
02
06
05
09
#610000
1!
1/
15
0:
04
03
0#
#620000
0!
0/
05
#630000
1!
1/
15
#640000
0!
1"
0/
12
16
05
19
#650000
1!
1/
15
1:
14
13
1#
#660000
0!
0/
05
#670000
1!
1/
15
#680000
0!
0"
0/
02
06
05
09
#690000
1!
1/
15
0:
04
03
0#
#700000
0!
0/
05
#710000
1!
1/
15
#720000
0!
1"
0/
12
16
05
19
#730000
1!
1/
15
1:
14
13
1#
#740000
0!
0/
05
#750000
1!
1/
15
#760000
0!
0"
0/
02
06
05
09
#770000
1!
1/
15
0:
04
03
0#
#780000
0!
0/
05
#790000
1!
1/
15
#800000
0!
1"
0/
12
16
05
19
#810000
1!
1/
15
1:
14
13
1#
#820000
0!
0/
05
#830000
1!
1/
15
#840000
0!
0"
0/
02
06
05
09
#850000
1!
1/
15
0:
04
03
0#
#860000
0!
0/
05
#870000
1!
1/
15
#880000
0!
0%
0/
00
07
05
#890000
1!
1/
15
#900000
0!
0/
05
#910000
1!
1/
15
#920000
0!
1"
0/
12
16
05
#930000
1!
1/
15
#940000
0!
0/
05
#950000
1!
1/
15
#960000
0!
0"
0/
02
06
05
#970000
1!
1/
15
#980000
0!
0/
05
#990000
1!
1/
15
