2Semestre/LSD/Aulas/aula05/Parte3/simulation/qsim/TimerN_Demo.msim.vcd
$comment
	File created using the following command:
		vcd file TimerN_Demo.msim.vcd -direction
$end
$date
	Tue Apr  4 14:20:25 2023
$end
$version
	Questa Intel Starter FPGA Edition Version 2021.2
$end
$timescale
	1ps
$end

$scope module timern_vhd_vec_tst $end
$var wire 1 ! clk $end
$var wire 1 " enable $end
$var wire 1 # reset $end
$var wire 1 $ start $end
$var wire 1 % timerOut $end

$scope module i1 $end
$var wire 1 & gnd $end
$var wire 1 ' vcc $end
$var wire 1 ( unknown $end
$var wire 1 ) devoe $end
$var wire 1 * devclrn $end
$var wire 1 + devpor $end
$var wire 1 , ww_devoe $end
$var wire 1 - ww_devclrn $end
$var wire 1 . ww_devpor $end
$var wire 1 / ww_start $end
$var wire 1 0 ww_reset $end
$var wire 1 1 ww_clk $end
$var wire 1 2 ww_enable $end
$var wire 1 3 ww_timerOut $end
$var wire 1 4 \timerOut~output_o\ $end
$var wire 1 5 \clk~input_o\ $end
$var wire 1 6 \start~input_o\ $end
$var wire 1 7 \enable~input_o\ $end
$var wire 1 8 \reset~input_o\ $end
$var wire 1 9 \s_count~1_combout\ $end
$var wire 1 : \Add0~1\ $end
$var wire 1 ; \Add0~2_combout\ $end
$var wire 1 < \Add0~3\ $end
$var wire 1 = \Add0~4_combout\ $end
$var wire 1 > \s_count[1]~4_combout\ $end
$var wire 1 ? \s_count[1]~5_combout\ $end
$var wire 1 @ \s_count[2]~10_combout\ $end
$var wire 1 A \s_count[5]~3_combout\ $end
$var wire 1 B \s_count[1]~9_combout\ $end
$var wire 1 C \LessThan0~0_combout\ $end
$var wire 1 D \s_count~0_combout\ $end
$var wire 1 E \Add0~0_combout\ $end
$var wire 1 F \s_count~2_combout\ $end
$var wire 1 G \Add0~5\ $end
$var wire 1 H \Add0~6_combout\ $end
$var wire 1 I \s_count[3]~6_combout\ $end
$var wire 1 J \Add0~7\ $end
$var wire 1 K \Add0~8_combout\ $end
$var wire 1 L \s_count[4]~7_combout\ $end
$var wire 1 M \Add0~9\ $end
$var wire 1 N \Add0~10_combout\ $end
$var wire 1 O \s_count[5]~8_combout\ $end
$var wire 1 P \Equal0~0_combout\ $end
$var wire 1 Q \Equal0~1_combout\ $end
$var wire 1 R \timerOut~0_combout\ $end
$var wire 1 S \timerOut~reg0_q\ $end
$var wire 1 T s_count [5] $end
$var wire 1 U s_count [4] $end
$var wire 1 V s_count [3] $end
$var wire 1 W s_count [2] $end
$var wire 1 X s_count [1] $end
$var wire 1 Y s_count [0] $end
$upscope $end
$upscope $end
$enddefinitions $end
#0
$dumpvars
0!
0"
0#
0$
0%
0&
1'
x(
1)
1*
1+
1,
1-
1.
0/
00
01
02
03
04
05
06
07
08
09
0:
0;
1<
0=
1>
1?
0@
1A
0B
0C
0D
1E
0F
0G
0H
0I
1J
0K
0L
0M
0N
0O
1P
1Q
0R
0S
0T
0U
0V
0W
0X
0Y
$end
#10000
1!
11
15
#20000
0!
01
05
#30000
1!
11
15
#40000
0!
01
05
#50000
1!
11
15
#60000
0!
01
05
#70000
1!
1"
11
12
17
15
0>
#80000
0!
01
05
#90000
1!
1$
11
1/
16
15
19
1>
1F
#100000
0!
0$
01
0/
06
05
09
0>
0F
#110000
1!
1#
11
10
18
15
0?
0A
#120000
0!
01
05
#130000
1!
11
15
#140000
0!
01
05
#150000
1!
11
15
#160000
0!
0#
01
00
08
05
1?
1A
#170000
1!
11
15
#180000
0!
01
05
#190000
1!
11
15
#200000
0!
01
05
#210000
1!
1$
11
1/
16
15
19
1>
1F
#220000
0!
01
05
#230000
1!
0$
11
0/
06
15
1Y
09
0>
0F
0E
1:
0P
0?
1D
1;
1R
1B
#240000
0!
01
05
#250000
1!
11
15
1X
0Y
1S
1E
0:
1P
0;
0<
1C
1=
0B
1;
1<
1F
14
0=
1B
1@
13
1%
0@
#260000
0!
01
05
#270000
1!
11
15
1Y
0E
1:
0P
0;
0<
0F
1=
0B
1@
#280000
0!
01
05
#290000
1!
11
15
1W
0X
0Y
1E
0:
1P
1;
1<
0=
1G
1H
0@
1=
0G
1B
0;
1F
0B
0H
1@
1I
0I
#300000
0!
01
05
#310000
1!
11
15
1Y
0E
1:
0P
1;
0F
1B
#320000
0!
01
05
#330000
1!
11
15
1X
0Y
1E
0:
1P
0;
0<
0=
1G
0B
0A
0Q
1;
1<
1F
1=
0G
0F
0R
1H
0@
0H
#340000
0!
01
05
#350000
1!
11
15
0W
0X
0S
0;
0=
1A
0C
1Q
1F
1R
1?
0D
04
0F
0R
03
0%
#360000
0!
01
05
#370000
1!
11
15
#380000
0!
01
05
#390000
1!
11
15
#400000
0!
01
05
#410000
1!
11
15
#420000
0!
01
05
#430000
1!
11
15
#440000
0!
01
05
#450000
1!
1$
11
1/
16
15
19
1>
1F
#460000
0!
01
05
#470000
1!
11
15
1Y
0E
1:
0P
1D
1;
#480000
0!
0$
01
0/
06
05
09
0>
1R
0?
0F
1B
#490000
1!
11
15
1X
0Y
1S
1E
0:
1P
0;
0<
1C
1=
0B
1;
1<
1F
14
0=
1B
1@
13
1%
0@
#500000
0!
01
05
#510000
1!
11
15
1Y
0E
1:
0P
0;
0<
0F
1=
0B
1@
#520000
0!
01
05
#530000
1!
11
15
1W
0X
0Y
1E
0:
1P
1;
1<
0=
1G
1H
0@
1=
0G
1B
0;
1F
0B
0H
1@
1I
0I
#540000
0!
01
05
#550000
1!
11
15
1Y
0E
1:
0P
1;
0F
1B
#560000
0!
01
05
#570000
1!
11
15
1X
0Y
1E
0:
1P
0;
0<
0=
1G
0B
0A
0Q
1;
1<
1F
1=
0G
0F
0R
1H
0@
0H
#580000
0!
01
05
#590000
1!
11
15
0W
0X
0S
0;
0=
1A
0C
1Q
1F
1R
1?
0D
04
0F
0R
03
0%
#600000
0!
01
05
#610000
1!
11
15
#620000
0!
01
05
#630000
1!
11
15
#640000
0!
01
05
#650000
1!
11
15
#660000
0!
01
05
#670000
1!
11
15
#680000
0!
01
05
#690000
1!
11
15
#700000
0!
01
05
#710000
1!
11
15
#720000
0!
01
05
#730000
1!
11
15
#740000
0!
01
05
#750000
1!
11
15
#760000
0!
01
05
#770000
1!
11
15
#780000
0!
01
05
#790000
1!
11
15
#800000
0!
01
05
#810000
1!
11
15
#820000
0!
01
05
#830000
1!
11
15
#840000
0!
01
05
#850000
1!
11
15
#860000
0!
0"
01
02
07
05
1>
#870000
1!
11
15
#880000
0!
01
05
#890000
1!
11
15
#900000
0!
01
05
#910000
1!
11
15
#920000
0!
01
05
#930000
1!
11
15
#940000
0!
01
05
#950000
1!
11
15
#960000
0!
01
05
#970000
1!
11
15
#980000
0!
01
05
#990000
1!
11
15
