2Semestre/LSD/Aulas/aula10/Parte1/simulation/qsim/ROM_Demo.msim.vcd
$comment
	File created using the following command:
		vcd file ROM_Demo.msim.vcd -direction
$end
$date
	Mon May 22 18:35:23 2023
$end
$version
	Questa Intel Starter FPGA Edition Version 2021.2
$end
$timescale
	1ps
$end

$scope module rom_16_8_vhd_vec_tst $end
$var wire 1 ! address [3] $end
$var wire 1 " address [2] $end
$var wire 1 # address [1] $end
$var wire 1 $ address [0] $end
$var wire 1 % data_out [7] $end
$var wire 1 & data_out [6] $end
$var wire 1 ' data_out [5] $end
$var wire 1 ( data_out [4] $end
$var wire 1 ) data_out [3] $end
$var wire 1 * data_out [2] $end
$var wire 1 + data_out [1] $end
$var wire 1 , data_out [0] $end

$scope module i1 $end
$var wire 1 - gnd $end
$var wire 1 . vcc $end
$var wire 1 / unknown $end
$var wire 1 0 devoe $end
$var wire 1 1 devclrn $end
$var wire 1 2 devpor $end
$var wire 1 3 ww_devoe $end
$var wire 1 4 ww_devclrn $end
$var wire 1 5 ww_devpor $end
$var wire 1 6 ww_address [3] $end
$var wire 1 7 ww_address [2] $end
$var wire 1 8 ww_address [1] $end
$var wire 1 9 ww_address [0] $end
$var wire 1 : ww_data_out [7] $end
$var wire 1 ; ww_data_out [6] $end
$var wire 1 < ww_data_out [5] $end
$var wire 1 = ww_data_out [4] $end
$var wire 1 > ww_data_out [3] $end
$var wire 1 ? ww_data_out [2] $end
$var wire 1 @ ww_data_out [1] $end
$var wire 1 A ww_data_out [0] $end
$var wire 1 B \data_out[0]~output_o\ $end
$var wire 1 C \data_out[1]~output_o\ $end
$var wire 1 D \data_out[2]~output_o\ $end
$var wire 1 E \data_out[3]~output_o\ $end
$var wire 1 F \data_out[4]~output_o\ $end
$var wire 1 G \data_out[5]~output_o\ $end
$var wire 1 H \data_out[6]~output_o\ $end
$var wire 1 I \data_out[7]~output_o\ $end
$var wire 1 J \address[0]~input_o\ $end
$var wire 1 K \address[1]~input_o\ $end
$var wire 1 L \address[2]~input_o\ $end
$var wire 1 M \address[3]~input_o\ $end
$upscope $end
$upscope $end
$enddefinitions $end
#0
$dumpvars
0-
1.
x/
10
11
12
13
14
15
0B
0C
0D
0E
0F
0G
0H
0I
0J
0K
0L
0M
0!
0"
0#
0$
06
07
08
09
0%
0&
0'
0(
0)
0*
0+
0,
0:
0;
0<
0=
0>
0?
0@
0A
$end
#20000
1!
1#
18
16
1M
1K
1C
1E
1@
1>
1+
1)
#90000
0!
0#
08
06
0M
0K
0C
0E
0@
0>
0+
0)
#140000
1!
1#
1"
18
17
16
1M
1L
1K
1C
1D
1E
1@
1?
1>
1+
1*
1)
#350000
0!
06
0M
0E
0>
0)
#480000
1!
1$
19
16
1M
1J
1B
1E
1A
1>
1,
1)
#640000
0$
0"
09
07
0L
0J
0B
0D
0A
0?
0,
0*
#780000
0!
0#
08
06
0M
0K
0C
0E
0@
0>
0+
0)
